EESchema Schematic File Version 2
LIBS:TDCombat-rescue
LIBS:power
LIBS:device
LIBS:transistors
LIBS:conn
LIBS:linear
LIBS:regul
LIBS:74xx
LIBS:cmos4000
LIBS:adc-dac
LIBS:memory
LIBS:xilinx
LIBS:microcontrollers
LIBS:dsp
LIBS:microchip
LIBS:analog_switches
LIBS:motorola
LIBS:texas
LIBS:intel
LIBS:audio
LIBS:interface
LIBS:digital-audio
LIBS:philips
LIBS:display
LIBS:cypress
LIBS:siliconi
LIBS:opto
LIBS:atmel
LIBS:contrib
LIBS:valves
LIBS:stm32
LIBS:ThunderDrive
LIBS:crf_1
LIBS:con-amp-micromatch
LIBS:TDCombat-cache
EELAYER 25 0
EELAYER END
$Descr A4 11693 8268
encoding utf-8
Sheet 3 4
Title "Thunderdrive Combat"
Date "2016-02-15"
Rev "2"
Comp "Thunder Tecnologies"
Comment1 "DRV8305 power stage"
Comment2 ""
Comment3 ""
Comment4 ""
$EndDescr
$Comp
L DRV8305 U2
U 1 1 56BBDD0F
P 3800 3250
F 0 "U2" H 3800 3300 60  0000 C CNN
F 1 "DRV8305N" H 3800 3150 60  0000 C CNN
F 2 "thunderdrive-combat:HTQFP-48-1EP_7x7mm_Pitch0.5mm" H 3800 3250 60  0001 C CNN
F 3 "" H 3800 3250 60  0000 C CNN
	1    3800 3250
	1    0    0    -1  
$EndComp
Text HLabel 1050 2150 0    60   Input ~ 0
EN_GATE
Text HLabel 1050 2750 0    60   Input ~ 0
INHB
Text HLabel 1050 3150 0    60   Input ~ 0
INHC
Text HLabel 1050 3550 0    60   Output ~ 0
/FAULT
Text HLabel 1050 3750 0    60   Input ~ 0
/SCS
Text HLabel 1050 3950 0    60   Input ~ 0
SDI
Text HLabel 1050 4150 0    60   Output ~ 0
SDO
Text HLabel 1050 4350 0    60   Input ~ 0
SCLK
Text HLabel 1050 5550 0    60   Output ~ 0
Ia
Text HLabel 1050 5750 0    60   Output ~ 0
Ib
Text HLabel 1050 5950 0    60   Output ~ 0
Ic
$Comp
L C-RESCUE-TDCombat C29
U 1 1 56BD024E
P 3100 5100
AR Path="/56BD024E" Ref="C29"  Part="1" 
AR Path="/56BBDB7A/56BD024E" Ref="C29"  Part="1" 
F 0 "C29" H 3125 5200 50  0000 L CNN
F 1 "4µ7 50V" V 3050 5150 50  0000 L CNN
F 2 "Capacitors_SMD:C_1206_HandSoldering" H 3138 4950 50  0001 C CNN
F 3 "" H 3100 5100 50  0000 C CNN
	1    3100 5100
	1    0    0    -1  
$EndComp
$Comp
L TPHR8504PL Q3
U 1 1 56C74706
P 8400 1650
F 0 "Q3" H 8500 1650 50  0000 L CNN
F 1 "TPHR8504PL" H 7750 1700 50  0000 L CNN
F 2 "thunderdrive-combat:DSOP_ADVANCE" H 7750 1750 50  0001 L CNN
F 3 "" H 8300 1650 50  0000 L CNN
	1    8400 1650
	1    0    0    -1  
$EndComp
$Comp
L TPHR8504PL Q1
U 1 1 56C7470D
P 8400 1000
F 0 "Q1" H 8500 1000 50  0000 L CNN
F 1 "TPHR8504PL" H 7750 1050 50  0000 L CNN
F 2 "thunderdrive-combat:DSOP_ADVANCE" H 7800 1200 50  0001 L CNN
F 3 "" H 8300 1000 50  0000 L CNN
	1    8400 1000
	1    0    0    -1  
$EndComp
$Comp
L +24V #PWR014
U 1 1 56C74722
P 8400 700
F 0 "#PWR014" H 8400 550 50  0001 C CNN
F 1 "+24V" H 8400 840 50  0000 C CNN
F 2 "" H 8400 700 60  0000 C CNN
F 3 "" H 8400 700 60  0000 C CNN
	1    8400 700 
	1    0    0    -1  
$EndComp
$Comp
L TPHR8504PL Q2
U 1 1 56C74728
P 9100 1000
F 0 "Q2" H 9200 1000 50  0000 L CNN
F 1 "TPHR8504PL" H 9200 900 50  0000 L CNN
F 2 "thunderdrive-combat:DSOP_ADVANCE" H 8500 1200 50  0001 L CNN
F 3 "" H 9000 1000 50  0000 L CNN
	1    9100 1000
	1    0    0    -1  
$EndComp
$Comp
L TPHR8504PL Q4
U 1 1 56C7472F
P 9100 1650
F 0 "Q4" H 9200 1650 50  0000 L CNN
F 1 "TPHR8504PL" H 9200 1550 50  0000 L CNN
F 2 "thunderdrive-combat:DSOP_ADVANCE" H 8500 1850 50  0001 L CNN
F 3 "" H 9000 1650 50  0000 L CNN
	1    9100 1650
	1    0    0    -1  
$EndComp
Text HLabel 9300 1350 2    60   Output ~ 0
Out_A
$Comp
L GNDPWR #PWR015
U 1 1 56C74768
P 9950 2200
F 0 "#PWR015" H 9950 2000 50  0001 C CNN
F 1 "GNDPWR" H 9950 2070 50  0000 C CNN
F 2 "" H 9950 2150 60  0000 C CNN
F 3 "" H 9950 2150 60  0000 C CNN
	1    9950 2200
	-1   0    0    -1  
$EndComp
$Comp
L TPHR8504PL Q7
U 1 1 56C749B4
P 8400 3600
F 0 "Q7" H 8500 3600 50  0000 L CNN
F 1 "TPHR8504PL" H 7750 3650 50  0000 L CNN
F 2 "thunderdrive-combat:DSOP_ADVANCE" H 7750 3700 50  0001 L CNN
F 3 "" H 8300 3600 50  0000 L CNN
	1    8400 3600
	1    0    0    -1  
$EndComp
$Comp
L TPHR8504PL Q5
U 1 1 56C749BB
P 8400 2950
F 0 "Q5" H 8500 2950 50  0000 L CNN
F 1 "TPHR8504PL" H 7750 3000 50  0000 L CNN
F 2 "thunderdrive-combat:DSOP_ADVANCE" H 7800 3150 50  0001 L CNN
F 3 "" H 8300 2950 50  0000 L CNN
	1    8400 2950
	1    0    0    -1  
$EndComp
$Comp
L +24V #PWR016
U 1 1 56C749D0
P 8400 2600
F 0 "#PWR016" H 8400 2450 50  0001 C CNN
F 1 "+24V" H 8400 2740 50  0000 C CNN
F 2 "" H 8400 2600 60  0000 C CNN
F 3 "" H 8400 2600 60  0000 C CNN
	1    8400 2600
	1    0    0    -1  
$EndComp
$Comp
L TPHR8504PL Q6
U 1 1 56C749D6
P 9100 2950
F 0 "Q6" H 9200 2950 50  0000 L CNN
F 1 "TPHR8504PL" H 9200 2850 50  0000 L CNN
F 2 "thunderdrive-combat:DSOP_ADVANCE" H 8500 3150 50  0001 L CNN
F 3 "" H 9000 2950 50  0000 L CNN
	1    9100 2950
	1    0    0    -1  
$EndComp
Text HLabel 9300 3350 2    60   Output ~ 0
Out_B
$Comp
L GNDPWR #PWR017
U 1 1 56C74A16
P 9900 4150
F 0 "#PWR017" H 9900 3950 50  0001 C CNN
F 1 "GNDPWR" H 9900 4020 50  0000 C CNN
F 2 "" H 9900 4100 60  0000 C CNN
F 3 "" H 9900 4100 60  0000 C CNN
	1    9900 4150
	-1   0    0    -1  
$EndComp
$Comp
L TPHR8504PL Q11
U 1 1 56C75077
P 8400 5450
F 0 "Q11" H 8500 5450 50  0000 L CNN
F 1 "TPHR8504PL" H 7750 5500 50  0000 L CNN
F 2 "thunderdrive-combat:DSOP_ADVANCE" H 7750 5550 50  0001 L CNN
F 3 "" H 8300 5450 50  0000 L CNN
	1    8400 5450
	1    0    0    -1  
$EndComp
$Comp
L TPHR8504PL Q9
U 1 1 56C7507E
P 8400 4800
F 0 "Q9" H 8500 4800 50  0000 L CNN
F 1 "TPHR8504PL" H 7750 4850 50  0000 L CNN
F 2 "thunderdrive-combat:DSOP_ADVANCE" H 7800 5000 50  0001 L CNN
F 3 "" H 8300 4800 50  0000 L CNN
	1    8400 4800
	1    0    0    -1  
$EndComp
$Comp
L +24V #PWR018
U 1 1 56C75093
P 8400 4500
F 0 "#PWR018" H 8400 4350 50  0001 C CNN
F 1 "+24V" H 8400 4640 50  0000 C CNN
F 2 "" H 8400 4500 60  0000 C CNN
F 3 "" H 8400 4500 60  0000 C CNN
	1    8400 4500
	1    0    0    -1  
$EndComp
$Comp
L TPHR8504PL Q10
U 1 1 56C75099
P 9100 4800
F 0 "Q10" H 9200 4800 50  0000 L CNN
F 1 "TPHR8504PL" H 9200 4700 50  0000 L CNN
F 2 "thunderdrive-combat:DSOP_ADVANCE" H 8500 5000 50  0001 L CNN
F 3 "" H 9000 4800 50  0000 L CNN
	1    9100 4800
	1    0    0    -1  
$EndComp
$Comp
L TPHR8504PL Q12
U 1 1 56C750A0
P 9100 5450
F 0 "Q12" H 9200 5450 50  0000 L CNN
F 1 "TPHR8504PL" H 9200 5350 50  0000 L CNN
F 2 "thunderdrive-combat:DSOP_ADVANCE" H 8500 5650 50  0001 L CNN
F 3 "" H 9000 5450 50  0000 L CNN
	1    9100 5450
	1    0    0    -1  
$EndComp
Text HLabel 9300 5150 2    60   Output ~ 0
Out_C
$Comp
L GNDPWR #PWR019
U 1 1 56C750D9
P 9900 6050
F 0 "#PWR019" H 9900 5850 50  0001 C CNN
F 1 "GNDPWR" H 9900 5920 50  0000 C CNN
F 2 "" H 9900 6000 60  0000 C CNN
F 3 "" H 9900 6000 60  0000 C CNN
	1    9900 6050
	-1   0    0    -1  
$EndComp
$Comp
L TPHR8504PL Q8
U 1 1 56C749DD
P 9100 3600
F 0 "Q8" H 9200 3600 50  0000 L CNN
F 1 "TPHR8504PL" H 9200 3500 50  0000 L CNN
F 2 "thunderdrive-combat:DSOP_ADVANCE" H 8500 3800 50  0001 L CNN
F 3 "" H 9000 3600 50  0000 L CNN
	1    9100 3600
	1    0    0    -1  
$EndComp
Wire Wire Line
	3700 5950 3700 4750
Wire Wire Line
	3500 5750 3500 4750
Wire Wire Line
	3300 5550 3300 4750
Connection ~ 2900 5300
Wire Wire Line
	3100 4950 3100 4750
Wire Wire Line
	3100 5300 3100 5250
Wire Wire Line
	1800 5300 3100 5300
Wire Wire Line
	2900 4750 2900 5350
Wire Wire Line
	1050 4350 2100 4350
Wire Wire Line
	1050 4150 2100 4150
Wire Wire Line
	1050 3950 2100 3950
Wire Wire Line
	1050 3750 2100 3750
Wire Wire Line
	1050 3550 2100 3550
Wire Wire Line
	1050 3150 2100 3150
Wire Wire Line
	1050 2750 2100 2750
Wire Wire Line
	1050 2150 2100 2150
Wire Wire Line
	3900 4750 3900 6350
Wire Wire Line
	4100 4750 4100 6000
Wire Wire Line
	4300 4750 4300 5750
Wire Wire Line
	4500 4750 4500 5450
Wire Wire Line
	4700 4750 4700 5350
Wire Wire Line
	4900 4750 4900 5250
Wire Wire Line
	5500 2150 6550 2150
Wire Wire Line
	5500 2350 6650 2350
Wire Wire Line
	6750 2550 5500 2550
Wire Wire Line
	6850 2750 5500 2750
Wire Wire Line
	5500 2950 7600 2950
Wire Wire Line
	5500 3550 7500 3550
Wire Wire Line
	5500 3750 6850 3750
Wire Wire Line
	5500 3950 6750 3950
Wire Wire Line
	5500 4150 6650 4150
Wire Wire Line
	5500 4350 6550 4350
Wire Wire Line
	8400 700  8400 800 
Wire Wire Line
	8400 1200 8400 1450
Connection ~ 8400 1350
Wire Wire Line
	7950 1700 7950 1900
Wire Wire Line
	8400 750  9100 750 
Connection ~ 8400 750 
Wire Wire Line
	8400 1850 8400 2000
Wire Wire Line
	9100 750  9100 800 
Wire Wire Line
	9100 1200 9100 1450
Connection ~ 9100 1350
Wire Wire Line
	8800 1050 8650 1050
Wire Wire Line
	8650 1050 8650 1250
Wire Wire Line
	7950 1050 7950 1250
Connection ~ 7950 1250
Wire Wire Line
	9100 2000 9100 1850
Wire Wire Line
	8800 1700 8700 1700
Wire Wire Line
	7950 1050 8100 1050
Wire Wire Line
	6650 1350 9300 1350
Wire Wire Line
	7950 1700 8100 1700
Wire Wire Line
	8400 2600 8400 2750
Wire Wire Line
	8400 3150 8400 3400
Connection ~ 8400 3350
Wire Wire Line
	7950 3650 7950 3850
Wire Wire Line
	8400 2650 9100 2650
Connection ~ 8400 2650
Wire Wire Line
	8400 3800 8400 3950
Wire Wire Line
	9100 2650 9100 2750
Wire Wire Line
	9100 3150 9100 3400
Connection ~ 9100 3350
Wire Wire Line
	8800 3000 8700 3000
Wire Wire Line
	8700 3000 8700 3150
Wire Wire Line
	7950 3000 7950 3150
Wire Wire Line
	9100 3950 9100 3800
Wire Wire Line
	8800 3650 8700 3650
Wire Wire Line
	8700 3650 8700 3850
Wire Wire Line
	7950 3000 8100 3000
Wire Wire Line
	7950 3650 8100 3650
Wire Wire Line
	8400 4500 8400 4600
Wire Wire Line
	8400 5000 8400 5250
Connection ~ 8400 5150
Wire Wire Line
	7950 5500 7950 5700
Wire Wire Line
	8400 4550 9100 4550
Connection ~ 8400 4550
Wire Wire Line
	8400 5650 8400 5800
Wire Wire Line
	9100 4550 9100 4600
Wire Wire Line
	9100 5000 9100 5250
Connection ~ 9100 5150
Wire Wire Line
	8800 4850 8650 4850
Wire Wire Line
	8650 4850 8650 5050
Wire Wire Line
	7950 4850 7950 5050
Connection ~ 7950 5050
Wire Wire Line
	9100 5800 9100 5650
Wire Wire Line
	8800 5500 8650 5500
Wire Wire Line
	8650 5500 8650 5700
Connection ~ 7950 5700
Wire Wire Line
	7950 4850 8100 4850
Wire Wire Line
	6750 5150 9300 5150
Wire Wire Line
	7950 5500 8100 5500
Wire Wire Line
	9950 2000 9950 2200
Wire Wire Line
	7000 2200 9450 2200
Wire Wire Line
	7100 2300 9650 2300
Connection ~ 9100 3950
Wire Wire Line
	9900 3950 9900 4150
Wire Wire Line
	7200 4150 9400 4150
Wire Wire Line
	7300 4250 9600 4250
Wire Wire Line
	9900 5800 9900 6050
Connection ~ 9100 5800
Wire Wire Line
	4100 6000 9350 6000
Wire Wire Line
	3900 6150 9550 6150
Wire Wire Line
	8650 1250 6550 1250
Wire Wire Line
	6550 1250 6550 2150
Wire Wire Line
	8700 1700 8700 1900
Wire Wire Line
	8700 1900 6850 1900
Wire Wire Line
	6650 2350 6650 1350
Connection ~ 7950 1900
Wire Wire Line
	6850 1900 6850 2750
Wire Wire Line
	7000 2200 7000 5250
Wire Wire Line
	7000 5250 4900 5250
Wire Wire Line
	4700 5350 7100 5350
Wire Wire Line
	7100 5350 7100 2300
Wire Wire Line
	7500 3550 7500 3150
Wire Wire Line
	7500 3150 8700 3150
Connection ~ 7950 3150
Wire Wire Line
	8700 3850 7600 3850
Wire Wire Line
	7600 3850 7600 2950
Connection ~ 7950 3850
Wire Wire Line
	5500 3150 7400 3150
Wire Wire Line
	7400 3150 7400 3950
Connection ~ 8400 3950
Wire Wire Line
	7200 5450 7200 4150
Wire Wire Line
	4500 5450 7200 5450
Wire Wire Line
	7300 4250 7300 5550
Wire Wire Line
	7300 5550 4300 5550
Wire Wire Line
	5500 3350 9300 3350
Wire Wire Line
	6850 3750 6850 5050
Wire Wire Line
	6850 5050 8650 5050
Wire Wire Line
	6750 3950 6750 5150
Wire Wire Line
	6650 4150 6650 5800
Wire Wire Line
	6550 4350 6550 5700
Connection ~ 8400 5800
$Comp
L C-RESCUE-TDCombat C18
U 1 1 56C223D0
P 2950 1150
AR Path="/56C223D0" Ref="C18"  Part="1" 
AR Path="/56BBDB7A/56C223D0" Ref="C18"  Part="1" 
F 0 "C18" V 3000 1200 50  0000 L CNN
F 1 "2µ2 50V" V 2900 1200 50  0000 L CNN
F 2 "Capacitors_SMD:C_0603_HandSoldering" H 2988 1000 50  0001 C CNN
F 3 "" H 2950 1150 50  0000 C CNN
	1    2950 1150
	0    1    1    0   
$EndComp
Wire Wire Line
	2700 1050 2700 1750
Wire Wire Line
	2800 1150 2700 1150
Connection ~ 2700 1150
Wire Wire Line
	3100 1150 3300 1150
Wire Wire Line
	3300 1050 3300 1750
$Comp
L C-RESCUE-TDCombat C24
U 1 1 56C23B5B
P 3100 1500
AR Path="/56C23B5B" Ref="C24"  Part="1" 
AR Path="/56BBDB7A/56C23B5B" Ref="C24"  Part="1" 
F 0 "C24" V 3150 1550 50  0000 L CNN
F 1 "2µ2 50V" V 3050 1550 50  0000 L CNN
F 2 "Capacitors_SMD:C_0603_HandSoldering" H 3138 1350 50  0001 C CNN
F 3 "" H 3100 1500 50  0000 C CNN
	1    3100 1500
	-1   0    0    1   
$EndComp
Wire Wire Line
	3100 1650 3100 1750
Wire Wire Line
	3100 1350 3100 1300
Wire Wire Line
	2900 1300 3300 1300
Connection ~ 3300 1300
$Comp
L R-RESCUE-TDCombat R18
U 1 1 56C24064
P 3500 1100
F 0 "R18" V 3580 1100 50  0000 C CNN
F 1 "100R" V 3500 1100 50  0000 C CNN
F 2 "Resistors_SMD:R_0603_HandSoldering" V 3430 1100 50  0001 C CNN
F 3 "" H 3500 1100 50  0000 C CNN
	1    3500 1100
	1    0    0    -1  
$EndComp
Wire Wire Line
	3500 1250 3500 1750
$Comp
L +24V #PWR020
U 1 1 56C242BA
P 4100 1050
F 0 "#PWR020" H 4100 900 50  0001 C CNN
F 1 "+24V" H 4100 1190 50  0000 C CNN
F 2 "" H 4100 1050 50  0000 C CNN
F 3 "" H 4100 1050 50  0000 C CNN
	1    4100 1050
	1    0    0    -1  
$EndComp
Wire Wire Line
	3500 750  3500 950 
$Comp
L C-RESCUE-TDCombat C22
U 1 1 56C24731
P 3700 1450
AR Path="/56C24731" Ref="C22"  Part="1" 
AR Path="/56BBDB7A/56C24731" Ref="C22"  Part="1" 
F 0 "C22" V 3750 1500 50  0000 L CNN
F 1 "100n 100V" V 3650 1500 50  0000 L CNN
F 2 "Capacitors_SMD:C_0603_HandSoldering" H 3738 1300 50  0001 C CNN
F 3 "" H 3700 1450 50  0000 C CNN
	1    3700 1450
	-1   0    0    1   
$EndComp
$Comp
L C-RESCUE-TDCombat C23
U 1 1 56C247A6
P 4300 1450
AR Path="/56C247A6" Ref="C23"  Part="1" 
AR Path="/56BBDB7A/56C247A6" Ref="C23"  Part="1" 
F 0 "C23" V 4350 1500 50  0000 L CNN
F 1 "100n 100V" V 4250 1500 50  0000 L CNN
F 2 "Capacitors_SMD:C_0603_HandSoldering" H 4338 1300 50  0001 C CNN
F 3 "" H 4300 1450 50  0000 C CNN
	1    4300 1450
	-1   0    0    1   
$EndComp
Wire Wire Line
	4100 1050 4100 1750
$Comp
L C-RESCUE-TDCombat C19
U 1 1 56C24BB7
P 5150 1150
AR Path="/56C24BB7" Ref="C19"  Part="1" 
AR Path="/56BBDB7A/56C24BB7" Ref="C19"  Part="1" 
F 0 "C19" V 5200 1200 50  0000 L CNN
F 1 "4µ7 50V" V 5100 1200 50  0000 L CNN
F 2 "Capacitors_SMD:C_1206_HandSoldering" H 5188 1000 50  0001 C CNN
F 3 "" H 5150 1150 50  0000 C CNN
	1    5150 1150
	0    1    1    0   
$EndComp
$Comp
L GNDPWR #PWR021
U 1 1 56C253B8
P 3300 1050
F 0 "#PWR021" H 3300 850 50  0001 C CNN
F 1 "GNDPWR" H 3300 920 50  0000 C CNN
F 2 "" H 3300 1000 60  0000 C CNN
F 3 "" H 3300 1000 60  0000 C CNN
	1    3300 1050
	1    0    0    1   
$EndComp
Connection ~ 3300 1150
Connection ~ 4100 1150
Wire Wire Line
	3700 1600 3700 1750
Wire Wire Line
	3700 1300 3700 1250
Wire Wire Line
	3700 1250 3900 1250
Wire Wire Line
	3900 1250 3900 1750
Wire Wire Line
	4300 1300 4300 1250
Wire Wire Line
	4300 1250 4500 1250
Wire Wire Line
	4500 1250 4500 1750
Wire Wire Line
	4300 1600 4300 1750
$Comp
L GNDPWR #PWR022
U 1 1 56C26048
P 5650 1700
F 0 "#PWR022" H 5650 1500 50  0001 C CNN
F 1 "GNDPWR" H 5650 1570 50  0000 C CNN
F 2 "" H 5650 1650 60  0000 C CNN
F 3 "" H 5650 1650 60  0000 C CNN
	1    5650 1700
	-1   0    0    -1  
$EndComp
Wire Wire Line
	5300 1150 5650 1150
Wire Wire Line
	5650 1150 5650 1700
$Comp
L C-RESCUE-TDCombat C26
U 1 1 56C2663A
P 5150 1550
AR Path="/56C2663A" Ref="C26"  Part="1" 
AR Path="/56BBDB7A/56C2663A" Ref="C26"  Part="1" 
F 0 "C26" V 5100 1400 50  0000 L CNN
F 1 "4µ7 50V" V 5200 1150 50  0000 L CNN
F 2 "Capacitors_SMD:C_1206_HandSoldering" H 5188 1400 50  0001 C CNN
F 3 "" H 5150 1550 50  0000 C CNN
	1    5150 1550
	0    -1   -1   0   
$EndComp
$Comp
L C-RESCUE-TDCombat C25
U 1 1 56C2687B
P 4700 1500
AR Path="/56C2687B" Ref="C25"  Part="1" 
AR Path="/56BBDB7A/56C2687B" Ref="C25"  Part="1" 
F 0 "C25" V 4750 1550 50  0000 L CNN
F 1 "2µ2 50V" V 4650 1550 50  0000 L CNN
F 2 "Capacitors_SMD:C_0603_HandSoldering" H 4738 1350 50  0001 C CNN
F 3 "" H 4700 1500 50  0000 C CNN
	1    4700 1500
	-1   0    0    1   
$EndComp
Wire Wire Line
	4700 1650 4700 1750
Wire Wire Line
	4700 1150 4700 1350
Connection ~ 4700 1150
Wire Wire Line
	4900 1750 4900 1550
Wire Wire Line
	4900 1550 5000 1550
Wire Wire Line
	5300 1550 5650 1550
Connection ~ 5650 1550
$Comp
L C-RESCUE-TDCombat C20
U 1 1 56C299F4
P 10450 1400
AR Path="/56C299F4" Ref="C20"  Part="1" 
AR Path="/56BBDB7A/56C299F4" Ref="C20"  Part="1" 
F 0 "C20" V 10500 1600 50  0000 L CNN
F 1 "4µ7 50V" V 10400 1450 50  0000 L CNN
F 2 "Capacitors_SMD:C_1206_HandSoldering" H 10488 1250 50  0001 C CNN
F 3 "" H 10450 1400 50  0000 C CNN
	1    10450 1400
	-1   0    0    1   
$EndComp
$Comp
L C-RESCUE-TDCombat C27
U 1 1 56C29F22
P 10450 3350
AR Path="/56C29F22" Ref="C27"  Part="1" 
AR Path="/56BBDB7A/56C29F22" Ref="C27"  Part="1" 
F 0 "C27" V 10500 3600 50  0000 L CNN
F 1 "4µ7 50V" V 10400 3400 50  0000 L CNN
F 2 "Capacitors_SMD:C_1206_HandSoldering" H 10488 3200 50  0001 C CNN
F 3 "" H 10450 3350 50  0000 C CNN
	1    10450 3350
	-1   0    0    1   
$EndComp
$Comp
L C-RESCUE-TDCombat C30
U 1 1 56C29FF3
P 10400 5150
AR Path="/56C29FF3" Ref="C30"  Part="1" 
AR Path="/56BBDB7A/56C29FF3" Ref="C30"  Part="1" 
F 0 "C30" V 10450 5400 50  0000 L CNN
F 1 "4µ7 50V" V 10350 5200 50  0000 L CNN
F 2 "Capacitors_SMD:C_1206_HandSoldering" H 10438 5000 50  0001 C CNN
F 3 "" H 10400 5150 50  0000 C CNN
	1    10400 5150
	-1   0    0    1   
$EndComp
$Comp
L +24V #PWR023
U 1 1 56C2B179
P 10450 750
F 0 "#PWR023" H 10450 600 50  0001 C CNN
F 1 "+24V" H 10450 890 50  0000 C CNN
F 2 "" H 10450 750 60  0000 C CNN
F 3 "" H 10450 750 60  0000 C CNN
	1    10450 750 
	1    0    0    -1  
$EndComp
$Comp
L GNDPWR #PWR024
U 1 1 56C2B1E7
P 10450 2100
F 0 "#PWR024" H 10450 1900 50  0001 C CNN
F 1 "GNDPWR" H 10450 1970 50  0000 C CNN
F 2 "" H 10450 2050 60  0000 C CNN
F 3 "" H 10450 2050 60  0000 C CNN
	1    10450 2100
	-1   0    0    -1  
$EndComp
Wire Wire Line
	10450 750  10450 1250
Wire Wire Line
	10450 1550 10450 2100
$Comp
L +24V #PWR025
U 1 1 56C2BEFC
P 10450 2650
F 0 "#PWR025" H 10450 2500 50  0001 C CNN
F 1 "+24V" H 10450 2790 50  0000 C CNN
F 2 "" H 10450 2650 60  0000 C CNN
F 3 "" H 10450 2650 60  0000 C CNN
	1    10450 2650
	1    0    0    -1  
$EndComp
$Comp
L GNDPWR #PWR026
U 1 1 56C2BF6A
P 10450 4000
F 0 "#PWR026" H 10450 3800 50  0001 C CNN
F 1 "GNDPWR" H 10450 3870 50  0000 C CNN
F 2 "" H 10450 3950 60  0000 C CNN
F 3 "" H 10450 3950 60  0000 C CNN
	1    10450 4000
	-1   0    0    -1  
$EndComp
Wire Wire Line
	10450 3500 10450 4000
Wire Wire Line
	10450 2650 10450 3200
$Comp
L GNDPWR #PWR027
U 1 1 56C2D578
P 10400 5850
F 0 "#PWR027" H 10400 5650 50  0001 C CNN
F 1 "GNDPWR" H 10400 5720 50  0000 C CNN
F 2 "" H 10400 5800 60  0000 C CNN
F 3 "" H 10400 5800 60  0000 C CNN
	1    10400 5850
	-1   0    0    -1  
$EndComp
$Comp
L +24V #PWR028
U 1 1 56C2D8FE
P 10400 4500
F 0 "#PWR028" H 10400 4350 50  0001 C CNN
F 1 "+24V" H 10400 4640 50  0000 C CNN
F 2 "" H 10400 4500 60  0000 C CNN
F 3 "" H 10400 4500 60  0000 C CNN
	1    10400 4500
	1    0    0    -1  
$EndComp
Wire Wire Line
	10400 4500 10400 5000
Wire Wire Line
	10400 5300 10400 5850
$Comp
L GNDPWR #PWR029
U 1 1 56C318BB
P 2900 5350
F 0 "#PWR029" H 2900 5150 50  0001 C CNN
F 1 "GNDPWR" H 2900 5220 50  0000 C CNN
F 2 "" H 2900 5300 60  0000 C CNN
F 3 "" H 2900 5300 60  0000 C CNN
	1    2900 5350
	-1   0    0    -1  
$EndComp
Wire Wire Line
	2900 1750 2900 1300
Connection ~ 3100 1300
Wire Wire Line
	2700 4750 2700 5300
$Comp
L +3.3VADC #PWR030
U 1 1 56C25D9A
P 2700 1050
F 0 "#PWR030" H 2850 1000 50  0001 C CNN
F 1 "+3.3VADC" H 2700 1150 50  0000 C CNN
F 2 "" H 2700 1050 50  0000 C CNN
F 3 "" H 2700 1050 50  0000 C CNN
	1    2700 1050
	1    0    0    -1  
$EndComp
$Comp
L +24V #PWR031
U 1 1 56C26871
P 3500 750
F 0 "#PWR031" H 3500 600 50  0001 C CNN
F 1 "+24V" H 3500 890 50  0000 C CNN
F 2 "" H 3500 750 50  0000 C CNN
F 3 "" H 3500 750 50  0000 C CNN
	1    3500 750 
	1    0    0    -1  
$EndComp
Wire Wire Line
	4100 1150 5000 1150
Text Notes 3650 650  0    60   ~ 0
Nah an den FETs plazieren.
Wire Wire Line
	6650 5800 9200 5800
Wire Wire Line
	6550 5700 8650 5700
Wire Wire Line
	6750 2000 6750 2550
Connection ~ 8400 2000
Connection ~ 9100 2000
Text Notes 10900 1250 3    39   ~ 0
EEU-FR1H471
Text Notes 10900 3200 3    39   ~ 0
EEU-FR1H471
Wire Wire Line
	1050 2350 2100 2350
Text HLabel 1050 2350 0    60   Input ~ 0
INHA
Wire Wire Line
	2100 2550 1800 2550
Wire Wire Line
	1800 2550 1800 5300
Connection ~ 2700 5300
Wire Wire Line
	2100 2950 1800 2950
Connection ~ 1800 2950
Wire Wire Line
	2100 3350 1800 3350
Connection ~ 1800 3350
$Comp
L C-RESCUE-TDCombat C1
U 1 1 56C8D855
P 4550 6350
AR Path="/56C8D855" Ref="C1"  Part="1" 
AR Path="/56BBDB7A/56C8D855" Ref="C1"  Part="1" 
F 0 "C1" V 4600 6400 50  0000 L CNN
F 1 "1n" V 4500 6400 50  0000 L CNN
F 2 "Capacitors_SMD:C_0603_HandSoldering" H 4588 6200 50  0001 C CNN
F 3 "" H 4550 6350 50  0000 C CNN
	1    4550 6350
	0    -1   -1   0   
$EndComp
Wire Wire Line
	3900 6350 4400 6350
Connection ~ 3900 6150
Wire Wire Line
	4700 6350 4950 6350
Wire Wire Line
	4950 6350 4950 6000
Connection ~ 4950 6000
$Comp
L C-RESCUE-TDCombat C2
U 1 1 56C8E764
P 4800 5750
AR Path="/56C8E764" Ref="C2"  Part="1" 
AR Path="/56BBDB7A/56C8E764" Ref="C2"  Part="1" 
F 0 "C2" V 4850 5800 50  0000 L CNN
F 1 "1n" V 4750 5800 50  0000 L CNN
F 2 "Capacitors_SMD:C_0603_HandSoldering" H 4838 5600 50  0001 C CNN
F 3 "" H 4800 5750 50  0000 C CNN
	1    4800 5750
	0    -1   -1   0   
$EndComp
Wire Wire Line
	4300 5750 4650 5750
Connection ~ 4300 5550
Wire Wire Line
	4950 5750 5150 5750
Wire Wire Line
	5150 5750 5150 5450
Connection ~ 5150 5450
$Comp
L C-RESCUE-TDCombat C3
U 1 1 56C8ED76
P 5300 5050
AR Path="/56C8ED76" Ref="C3"  Part="1" 
AR Path="/56BBDB7A/56C8ED76" Ref="C3"  Part="1" 
F 0 "C3" V 5350 5100 50  0000 L CNN
F 1 "1n" V 5250 5100 50  0000 L CNN
F 2 "Capacitors_SMD:C_0603_HandSoldering" H 5338 4900 50  0001 C CNN
F 3 "" H 5300 5050 50  0000 C CNN
	1    5300 5050
	0    -1   -1   0   
$EndComp
Wire Wire Line
	5150 5050 4900 5050
Connection ~ 4900 5050
Wire Wire Line
	5450 5050 5700 5050
Wire Wire Line
	5700 5050 5700 5350
Connection ~ 5700 5350
$Comp
L CP-RESCUE-TDCombat C15
U 1 1 56C9F38B
P 10700 1400
F 0 "C15" V 10650 1050 50  0000 L CNN
F 1 "470µ 63V" V 10750 950 50  0000 L CNN
F 2 "thunderdrive-combat:C_Radial_D12.5_L25_P5_Lie" H 10738 1250 50  0001 C CNN
F 3 "" H 10700 1400 50  0000 C CNN
	1    10700 1400
	1    0    0    -1  
$EndComp
Wire Wire Line
	10450 850  10700 850 
Wire Wire Line
	10700 850  10700 1250
Connection ~ 10450 850 
Wire Wire Line
	10700 1550 10700 2000
Wire Wire Line
	10700 2000 10450 2000
Connection ~ 10450 2000
$Comp
L CP-RESCUE-TDCombat C16
U 1 1 56CA0162
P 10700 3350
F 0 "C16" V 10650 2950 50  0000 L CNN
F 1 "470µ 63V" V 10750 2900 50  0000 L CNN
F 2 "thunderdrive-combat:C_Radial_D12.5_L25_P5_Lie" H 10738 3200 50  0001 C CNN
F 3 "" H 10700 3350 50  0000 C CNN
	1    10700 3350
	1    0    0    -1  
$EndComp
Wire Wire Line
	10700 3500 10700 3900
Wire Wire Line
	10700 3900 10450 3900
Connection ~ 10450 3900
Wire Wire Line
	10700 3200 10700 2750
Wire Wire Line
	10700 2750 10450 2750
Connection ~ 10450 2750
$Comp
L SHUNT R5
U 1 1 56D0D8F7
P 9450 5800
F 0 "R5" V 9530 5800 50  0000 C CNN
F 1 "2mR" V 9450 5800 50  0000 C CNN
F 2 "thunderdrive-combat:R_2512_4_Terminal_Shunt" H 9450 5800 60  0001 C CNN
F 3 "" H 9450 5800 60  0000 C CNN
	1    9450 5800
	0    -1   -1   0   
$EndComp
Wire Wire Line
	9350 6000 9350 5950
Wire Wire Line
	9550 6150 9550 5950
Wire Wire Line
	9700 5800 9900 5800
$Comp
L SHUNT R2
U 1 1 56D0E8BD
P 9500 3950
F 0 "R2" V 9580 3950 50  0000 C CNN
F 1 "2mR" V 9500 3950 50  0000 C CNN
F 2 "thunderdrive-combat:R_2512_4_Terminal_Shunt" H 9500 3950 60  0001 C CNN
F 3 "" H 9500 3950 60  0000 C CNN
	1    9500 3950
	0    -1   -1   0   
$EndComp
$Comp
L SHUNT R1
U 1 1 56D0ED3D
P 9550 2000
F 0 "R1" V 9630 2000 50  0000 C CNN
F 1 "2mR" V 9550 2000 50  0000 C CNN
F 2 "thunderdrive-combat:R_2512_4_Terminal_Shunt" H 9550 2000 60  0001 C CNN
F 3 "" H 9550 2000 60  0000 C CNN
	1    9550 2000
	0    -1   -1   0   
$EndComp
Wire Wire Line
	7400 3950 9250 3950
Wire Wire Line
	9400 4150 9400 4100
Wire Wire Line
	9600 4250 9600 4100
Wire Wire Line
	9750 3950 9900 3950
Wire Wire Line
	6750 2000 9300 2000
Wire Wire Line
	9450 2200 9450 2150
Wire Wire Line
	9650 2300 9650 2150
Wire Wire Line
	9800 2000 9950 2000
$Comp
L C-RESCUE-TDCombat C28
U 1 1 56D2E2DF
P 2700 6300
AR Path="/56D2E2DF" Ref="C28"  Part="1" 
AR Path="/56BBDB7A/56D2E2DF" Ref="C28"  Part="1" 
F 0 "C28" V 2750 6350 50  0000 L CNN
F 1 "1n" V 2650 6350 50  0000 L CNN
F 2 "Capacitors_SMD:C_0603_HandSoldering" H 2738 6150 50  0001 C CNN
F 3 "" H 2700 6300 50  0000 C CNN
	1    2700 6300
	1    0    0    -1  
$EndComp
$Comp
L C-RESCUE-TDCombat C21
U 1 1 56D2E4F1
P 2450 6300
AR Path="/56D2E4F1" Ref="C21"  Part="1" 
AR Path="/56BBDB7A/56D2E4F1" Ref="C21"  Part="1" 
F 0 "C21" V 2500 6350 50  0000 L CNN
F 1 "1n" V 2400 6350 50  0000 L CNN
F 2 "Capacitors_SMD:C_0603_HandSoldering" H 2488 6150 50  0001 C CNN
F 3 "" H 2450 6300 50  0000 C CNN
	1    2450 6300
	1    0    0    -1  
$EndComp
$Comp
L C-RESCUE-TDCombat C17
U 1 1 56D2E570
P 2200 6300
AR Path="/56D2E570" Ref="C17"  Part="1" 
AR Path="/56BBDB7A/56D2E570" Ref="C17"  Part="1" 
F 0 "C17" V 2250 6350 50  0000 L CNN
F 1 "1n" V 2150 6350 50  0000 L CNN
F 2 "Capacitors_SMD:C_0603_HandSoldering" H 2238 6150 50  0001 C CNN
F 3 "" H 2200 6300 50  0000 C CNN
	1    2200 6300
	1    0    0    -1  
$EndComp
$Comp
L R-RESCUE-TDCombat R6
U 1 1 56D2ECDA
P 1450 5550
F 0 "R6" V 1530 5550 50  0000 C CNN
F 1 "100R" V 1450 5550 50  0000 C CNN
F 2 "Resistors_SMD:R_0603_HandSoldering" V 1380 5550 50  0001 C CNN
F 3 "" H 1450 5550 50  0000 C CNN
	1    1450 5550
	0    1    1    0   
$EndComp
$Comp
L R-RESCUE-TDCombat R7
U 1 1 56D2F4C5
P 1450 5750
F 0 "R7" V 1530 5750 50  0000 C CNN
F 1 "100R" V 1450 5750 50  0000 C CNN
F 2 "Resistors_SMD:R_0603_HandSoldering" V 1380 5750 50  0001 C CNN
F 3 "" H 1450 5750 50  0000 C CNN
	1    1450 5750
	0    1    1    0   
$EndComp
$Comp
L R-RESCUE-TDCombat R15
U 1 1 56D2F589
P 1450 5950
F 0 "R15" V 1530 5950 50  0000 C CNN
F 1 "100R" V 1450 5950 50  0000 C CNN
F 2 "Resistors_SMD:R_0603_HandSoldering" V 1380 5950 50  0001 C CNN
F 3 "" H 1450 5950 50  0000 C CNN
	1    1450 5950
	0    1    1    0   
$EndComp
$Comp
L GNDA-RESCUE-TDCombat #PWR032
U 1 1 56D3042E
P 2450 6650
AR Path="/56D3042E" Ref="#PWR032"  Part="1" 
AR Path="/56BBDB7A/56D3042E" Ref="#PWR032"  Part="1" 
F 0 "#PWR032" H 2450 6400 50  0001 C CNN
F 1 "GNDA" H 2450 6500 50  0000 C CNN
F 2 "" H 2450 6650 50  0000 C CNN
F 3 "" H 2450 6650 50  0000 C CNN
	1    2450 6650
	1    0    0    -1  
$EndComp
Wire Wire Line
	1050 5550 1300 5550
Wire Wire Line
	1050 5750 1300 5750
Wire Wire Line
	1050 5950 1300 5950
Wire Wire Line
	1600 5550 3300 5550
Wire Wire Line
	1600 5750 3500 5750
Wire Wire Line
	1600 5950 3700 5950
Wire Wire Line
	2200 6150 2200 5950
Connection ~ 2200 5950
Wire Wire Line
	2450 6150 2450 5750
Connection ~ 2450 5750
Wire Wire Line
	2700 6150 2700 5550
Connection ~ 2700 5550
Wire Wire Line
	2200 6450 2200 6550
Wire Wire Line
	2200 6550 2700 6550
Wire Wire Line
	2700 6550 2700 6450
Wire Wire Line
	2450 6450 2450 6650
Connection ~ 2450 6550
Text Label 3300 4950 1    60   ~ 0
SO1
Text Label 3500 4950 1    60   ~ 0
SO2
Text Label 3700 4950 1    60   ~ 0
SO3
Text Label 3900 4950 1    60   ~ 0
SN3
Text Label 4100 4950 1    60   ~ 0
SP3
Text Label 4300 4950 1    60   ~ 0
SN2
Text Label 4500 4950 1    60   ~ 0
SP2
Text Label 4700 4950 1    60   ~ 0
SN1
Text Label 4900 4950 1    60   ~ 0
SP1
Text Label 3500 1650 1    60   ~ 0
VDRAIN
Text Label 5650 2150 0    60   ~ 0
GHA
Text Label 5650 2750 0    60   ~ 0
GLA
Text Label 5650 2550 0    60   ~ 0
SLA
Text Label 5650 2950 0    60   ~ 0
GLB
Text Label 5650 3150 0    60   ~ 0
SLB
Text Label 5650 3550 0    60   ~ 0
GHB
Text Label 5650 3750 0    60   ~ 0
GHC
Text Label 5650 4150 0    60   ~ 0
SLC
Text Label 5650 4350 0    60   ~ 0
GLC
$EndSCHEMATC
