(module SMD_5_PIN_HEADER (layer F.Cu) (tedit 0)
  (fp_text reference REF** (at 0 -2.2) (layer F.SilkS)
    (effects (font (size 1.2 1.2) (thickness 0.15)))
  )
  (fp_text value ZOIC-5 (at 0 2.2) (layer F.Fab)
    (effects (font (size 1.2 1.2) (thickness 0.15)))
  )
  (fp_line (start -1.4 1) (end -2.4 0) (layer F.SilkS) (width 0.15))
  (fp_line (start -2.4 0) (end -2.4 -1) (layer F.SilkS) (width 0.15))
  (fp_line (start -2.4 -1) (end 2.4 -1) (layer F.SilkS) (width 0.15))
  (fp_line (start 2.4 -1) (end 2.4 1) (layer F.SilkS) (width 0.15))
  (fp_line (start 2.4 1) (end -1.4 1) (layer F.SilkS) (width 0.15))
  (fp_line (start -2.4 -1) (end 2.4 -1) (layer F.CrtYd) (width 0.15))
  (fp_line (start 2.4 -1) (end 2.4 1) (layer F.CrtYd) (width 0.15))
  (fp_line (start 2.4 1) (end -2.4 1) (layer F.CrtYd) (width 0.15))
  (fp_line (start -2.4 1) (end -2.4 -1) (layer F.CrtYd) (width 0.15))
  (pad 1 smd rect (at -1.6 0) (size 0.6 1) (layers F.Cu F.Paste F.Mask))
  (pad 2 smd rect (at -0.8 0) (size 0.6 1) (layers F.Cu F.Paste F.Mask))
  (pad 3 smd rect (at 0 0) (size 0.6 1) (layers F.Cu F.Paste F.Mask))
  (pad 4 smd rect (at 0.8 0) (size 0.6 1) (layers F.Cu F.Paste F.Mask))
  (pad 5 smd rect (at 1.6 0) (size 0.6 1) (layers F.Cu F.Paste F.Mask))
)
