EESchema Schematic File Version 2
LIBS:TDCombat-rescue
LIBS:power
LIBS:device
LIBS:transistors
LIBS:conn
LIBS:linear
LIBS:regul
LIBS:74xx
LIBS:cmos4000
LIBS:adc-dac
LIBS:memory
LIBS:xilinx
LIBS:microcontrollers
LIBS:dsp
LIBS:microchip
LIBS:analog_switches
LIBS:motorola
LIBS:texas
LIBS:intel
LIBS:audio
LIBS:interface
LIBS:digital-audio
LIBS:philips
LIBS:display
LIBS:cypress
LIBS:siliconi
LIBS:opto
LIBS:atmel
LIBS:contrib
LIBS:valves
LIBS:stm32
LIBS:ThunderDrive
LIBS:crf_1
LIBS:con-amp-micromatch
LIBS:TDCombat-cache
EELAYER 25 0
EELAYER END
$Descr A4 11693 8268
encoding utf-8
Sheet 5 5
Title "Thunderdrive Combat Measurements"
Date "2015-12-16"
Rev "2"
Comp "Thunder Tecnologies GmbH"
Comment1 ""
Comment2 ""
Comment3 ""
Comment4 ""
$EndDescr
$Comp
L GNDA-RESCUE-TDCombat #PWR044
U 1 1 5646C7EA
P 3300 7550
F 0 "#PWR044" H 3300 7300 50  0001 C CNN
F 1 "GNDA" H 3300 7400 50  0000 C CNN
F 2 "" H 3300 7550 60  0000 C CNN
F 3 "" H 3300 7550 60  0000 C CNN
	1    3300 7550
	-1   0    0    -1  
$EndComp
Wire Wire Line
	3700 6950 4150 6950
Wire Wire Line
	4150 6650 3700 6650
Wire Wire Line
	4150 6750 3700 6750
Wire Wire Line
	4150 6850 3700 6850
$Comp
L R-RESCUE-TDCombat R406
U 1 1 5667F239
P 3550 6650
F 0 "R406" V 3500 6400 50  0000 C CNN
F 1 "16k7 0,1%" V 3500 6950 50  0000 C CNN
F 2 "Resistors_SMD:R_0805" V 3480 6650 30  0001 C CNN
F 3 "" H 3550 6650 30  0000 C CNN
	1    3550 6650
	0    1    1    0   
$EndComp
$Comp
L R-RESCUE-TDCombat R407
U 1 1 5667F7F8
P 3550 6750
F 0 "R407" V 3500 6500 50  0000 C CNN
F 1 "16k7 0,1%" V 3500 7050 50  0000 C CNN
F 2 "Resistors_SMD:R_0805" V 3480 6750 30  0001 C CNN
F 3 "" H 3550 6750 30  0000 C CNN
	1    3550 6750
	0    1    1    0   
$EndComp
$Comp
L R-RESCUE-TDCombat R408
U 1 1 5667F888
P 3550 6850
F 0 "R408" V 3500 6600 50  0000 C CNN
F 1 "16k7 0,1%" V 3500 7150 50  0000 C CNN
F 2 "Resistors_SMD:R_0805" V 3480 6850 30  0001 C CNN
F 3 "" H 3550 6850 30  0000 C CNN
	1    3550 6850
	0    1    1    0   
$EndComp
$Comp
L R-RESCUE-TDCombat R409
U 1 1 5667FCE7
P 3550 6950
F 0 "R409" V 3500 6700 50  0000 C CNN
F 1 "16k7 0,1%" V 3500 7250 50  0000 C CNN
F 2 "Resistors_SMD:R_0805" V 3480 6950 30  0001 C CNN
F 3 "" H 3550 6950 30  0000 C CNN
	1    3550 6950
	0    1    1    0   
$EndComp
$Comp
L R-RESCUE-TDCombat R405
U 1 1 5668085A
P 3300 7250
F 0 "R405" V 3350 7450 50  0000 C CNN
F 1 "2k 0,1%" V 3400 7200 50  0000 C CNN
F 2 "Resistors_SMD:R_0805" V 3230 7250 30  0001 C CNN
F 3 "" H 3300 7250 30  0000 C CNN
	1    3300 7250
	1    0    0    -1  
$EndComp
$Comp
L C-RESCUE-TDCombat C406
U 1 1 56680937
P 3050 7250
F 0 "C406" V 3100 7300 50  0000 L CNN
F 1 "12n" H 3075 7150 50  0000 L CNN
F 2 "Capacitors_SMD:C_0805" H 3088 7100 30  0001 C CNN
F 3 "" H 3050 7250 60  0000 C CNN
	1    3050 7250
	1    0    0    -1  
$EndComp
Wire Wire Line
	1250 6950 3400 6950
Wire Wire Line
	3300 6950 3300 7100
Wire Wire Line
	3050 6950 3050 7100
Connection ~ 3300 6950
$Comp
L R-RESCUE-TDCombat R404
U 1 1 566810D5
P 2750 7250
F 0 "R404" V 2800 7450 50  0000 C CNN
F 1 "2k 0,1%" V 2850 7200 50  0000 C CNN
F 2 "Resistors_SMD:R_0805" V 2680 7250 30  0001 C CNN
F 3 "" H 2750 7250 30  0000 C CNN
	1    2750 7250
	1    0    0    -1  
$EndComp
$Comp
L C-RESCUE-TDCombat C405
U 1 1 56681182
P 2500 7250
F 0 "C405" V 2550 7300 50  0000 L CNN
F 1 "12n" H 2525 7150 50  0000 L CNN
F 2 "Capacitors_SMD:C_0805" H 2538 7100 30  0001 C CNN
F 3 "" H 2500 7250 60  0000 C CNN
	1    2500 7250
	1    0    0    -1  
$EndComp
Wire Wire Line
	1250 6850 3400 6850
Wire Wire Line
	2750 6850 2750 7100
Wire Wire Line
	2500 6850 2500 7100
Connection ~ 2750 6850
$Comp
L R-RESCUE-TDCombat R403
U 1 1 566819CB
P 2200 7250
F 0 "R403" V 2250 7450 50  0000 C CNN
F 1 "2k 0,1%" V 2300 7200 50  0000 C CNN
F 2 "Resistors_SMD:R_0805" V 2130 7250 30  0001 C CNN
F 3 "" H 2200 7250 30  0000 C CNN
	1    2200 7250
	1    0    0    -1  
$EndComp
$Comp
L C-RESCUE-TDCombat C404
U 1 1 56681A7E
P 1950 7250
F 0 "C404" V 2000 7300 50  0000 L CNN
F 1 "12n" H 1975 7150 50  0000 L CNN
F 2 "Capacitors_SMD:C_0805" H 1988 7100 30  0001 C CNN
F 3 "" H 1950 7250 60  0000 C CNN
	1    1950 7250
	1    0    0    -1  
$EndComp
Wire Wire Line
	1250 6750 3400 6750
Wire Wire Line
	2200 6750 2200 7100
Wire Wire Line
	1950 6750 1950 7100
Connection ~ 2200 6750
$Comp
L R-RESCUE-TDCombat R401
U 1 1 56681E99
P 1650 7250
F 0 "R401" V 1700 7450 50  0000 C CNN
F 1 "2k 0,1%" V 1750 7200 50  0000 C CNN
F 2 "Resistors_SMD:R_0805" V 1580 7250 30  0001 C CNN
F 3 "" H 1650 7250 30  0000 C CNN
	1    1650 7250
	1    0    0    -1  
$EndComp
$Comp
L C-RESCUE-TDCombat C402
U 1 1 56681F56
P 1400 7250
F 0 "C402" V 1450 7300 50  0000 L CNN
F 1 "12n" H 1425 7150 50  0000 L CNN
F 2 "Capacitors_SMD:C_0805" H 1438 7100 30  0001 C CNN
F 3 "" H 1400 7250 60  0000 C CNN
	1    1400 7250
	1    0    0    -1  
$EndComp
Wire Wire Line
	1250 6650 3400 6650
Wire Wire Line
	1650 6650 1650 7100
Wire Wire Line
	1400 6650 1400 7100
Connection ~ 1650 6650
Wire Wire Line
	1400 7400 1400 7500
Wire Wire Line
	1400 7500 3300 7500
Wire Wire Line
	1650 7400 1650 7500
Connection ~ 1650 7500
Wire Wire Line
	1950 7400 1950 7500
Connection ~ 1950 7500
Wire Wire Line
	2200 7400 2200 7500
Connection ~ 2200 7500
Wire Wire Line
	2500 7400 2500 7500
Connection ~ 2500 7500
Wire Wire Line
	2750 7400 2750 7500
Connection ~ 2750 7500
Wire Wire Line
	3050 7400 3050 7500
Connection ~ 3050 7500
Wire Wire Line
	3300 7400 3300 7550
Connection ~ 3300 7500
Connection ~ 1400 6650
Connection ~ 1950 6750
Connection ~ 2500 6850
Connection ~ 3050 6950
Text HLabel 1250 6950 0    60   Output ~ 0
Va
Text HLabel 1250 6850 0    60   Output ~ 0
Vb
Text HLabel 1250 6750 0    60   Output ~ 0
Vc
Text HLabel 1250 6650 0    60   Output ~ 0
Vdc
Text HLabel 4150 6750 2    60   Input ~ 0
Phase_C
Text HLabel 4150 6850 2    60   Input ~ 0
Phase_B
Text HLabel 4150 6950 2    60   Input ~ 0
Phase_A
$Comp
L +24V #PWR057
U 1 1 566C2951
P 4150 6550
F 0 "#PWR057" H 4150 6400 50  0001 C CNN
F 1 "+24V" H 4150 6690 50  0000 C CNN
F 2 "" H 4150 6550 60  0000 C CNN
F 3 "" H 4150 6550 60  0000 C CNN
	1    4150 6550
	1    0    0    -1  
$EndComp
Wire Wire Line
	4150 6650 4150 6550
$EndSCHEMATC
