EESchema Schematic File Version 2
LIBS:TDCombat-rescue
LIBS:power
LIBS:device
LIBS:transistors
LIBS:conn
LIBS:linear
LIBS:regul
LIBS:74xx
LIBS:cmos4000
LIBS:adc-dac
LIBS:memory
LIBS:xilinx
LIBS:microcontrollers
LIBS:dsp
LIBS:microchip
LIBS:analog_switches
LIBS:motorola
LIBS:texas
LIBS:intel
LIBS:audio
LIBS:interface
LIBS:digital-audio
LIBS:philips
LIBS:display
LIBS:cypress
LIBS:siliconi
LIBS:opto
LIBS:atmel
LIBS:contrib
LIBS:valves
LIBS:stm32
LIBS:ThunderDrive
LIBS:crf_1
LIBS:con-amp-micromatch
LIBS:TDCombat-cache
EELAYER 25 0
EELAYER END
$Descr A4 11693 8268
encoding utf-8
Sheet 1 4
Title "Thunderdrive Combat"
Date "2016-02-15"
Rev "2"
Comp "Thunder Tecnologies"
Comment1 ""
Comment2 ""
Comment3 ""
Comment4 ""
$EndDescr
$Sheet
S 1000 800  1700 5000
U 561D5A12
F0 "Control" 60
F1 "TDCControl.sch" 60
F2 "PWM_A" O R 2700 1200 60 
F3 "PWM_B" O R 2700 1550 60 
F4 "PWM_C" O R 2700 1900 60 
F5 "Temp" I R 2700 5600 60 
F6 "Vdc" I R 2700 4850 60 
F7 "Ia" I R 2700 3550 60 
F8 "Ib" I R 2700 3700 60 
F9 "Ic" I R 2700 3850 60 
F10 "/FAULT" I R 2700 2400 60 
F11 "SCK" O R 2700 3200 60 
F12 "SDO" I R 2700 3050 60 
F13 "SDI" O R 2700 2900 60 
F14 "EN_GATE" O R 2700 1000 60 
F15 "/SCS" O R 2700 2750 60 
$EndSheet
$Sheet
S 3050 800  1850 3250
U 56BBDB7A
F0 "Bridge" 60
F1 "DRV8305Bridge.sch" 60
F2 "EN_GATE" I L 3050 1000 60 
F3 "INHA" I L 3050 1200 60 
F4 "INHB" I L 3050 1550 60 
F5 "INHC" I L 3050 1900 60 
F6 "/FAULT" O L 3050 2400 60 
F7 "/SCS" I L 3050 2750 60 
F8 "SDI" I L 3050 2900 60 
F9 "SDO" O L 3050 3050 60 
F10 "SCLK" I L 3050 3200 60 
F11 "Ia" O L 3050 3550 60 
F12 "Ib" O L 3050 3700 60 
F13 "Ic" O L 3050 3850 60 
F14 "Out_A" O R 4900 1150 60 
F15 "Out_B" O R 4900 1550 60 
F16 "Out_C" O R 4900 1900 60 
$EndSheet
$Sheet
S 9500 5000 950  1250
U 56C731EE
F0 "Supply" 60
F1 "TDCSupply.sch" 60
F2 "Bat-" I L 9500 6000 60 
F3 "Bat+" I L 9500 5450 60 
$EndSheet
Wire Wire Line
	2700 1200 3050 1200
Wire Wire Line
	2700 1550 3050 1550
Wire Wire Line
	2700 1900 3050 1900
Wire Wire Line
	2700 3550 3050 3550
Wire Wire Line
	2700 3700 3050 3700
Wire Wire Line
	2700 3850 3050 3850
Wire Wire Line
	2700 1000 3050 1000
Wire Wire Line
	2700 2400 3050 2400
Wire Wire Line
	2700 3200 3050 3200
Wire Wire Line
	2700 3050 3050 3050
Wire Wire Line
	2700 2900 3050 2900
Wire Wire Line
	2700 2750 3050 2750
$Comp
L CONN_01X01 P4
U 1 1 56C38454
P 8900 5450
F 0 "P4" H 8900 5550 50  0000 C CNN
F 1 "BAT+" V 9000 5450 50  0000 C CNN
F 2 "SMD_Packages:1Pin" H 8900 5450 50  0001 C CNN
F 3 "" H 8900 5450 50  0000 C CNN
	1    8900 5450
	-1   0    0    1   
$EndComp
$Comp
L CONN_01X01 P5
U 1 1 56C385A0
P 8900 6000
F 0 "P5" H 8900 6100 50  0000 C CNN
F 1 "BAT-" V 9000 6000 50  0000 C CNN
F 2 "SMD_Packages:1Pin" H 8900 6000 50  0001 C CNN
F 3 "" H 8900 6000 50  0000 C CNN
	1    8900 6000
	-1   0    0    1   
$EndComp
$Comp
L GNDA-RESCUE-TDCombat #PWR01
U 1 1 56C3AD3E
P 7150 5450
F 0 "#PWR01" H 7150 5200 50  0001 C CNN
F 1 "GNDA" H 7150 5300 50  0000 C CNN
F 2 "" H 7150 5450 60  0000 C CNN
F 3 "" H 7150 5450 60  0000 C CNN
	1    7150 5450
	-1   0    0    -1  
$EndComp
Wire Wire Line
	7550 4850 9250 4850
$Comp
L R-RESCUE-TDCombat R4
U 1 1 56C3AD5D
P 7400 4850
F 0 "R4" V 7350 4600 50  0000 C CNN
F 1 "16k7 0,1%" V 7350 5150 50  0000 C CNN
F 2 "Resistors_SMD:R_0603_HandSoldering" V 7330 4850 30  0001 C CNN
F 3 "" H 7400 4850 30  0000 C CNN
	1    7400 4850
	0    1    1    0   
$EndComp
$Comp
L R-RESCUE-TDCombat R8
U 1 1 56C3AD64
P 7150 5150
F 0 "R8" V 7200 5350 50  0000 C CNN
F 1 "1k 0,1%" V 7250 5100 50  0000 C CNN
F 2 "Resistors_SMD:R_0603_HandSoldering" V 7080 5150 30  0001 C CNN
F 3 "" H 7150 5150 30  0000 C CNN
	1    7150 5150
	1    0    0    -1  
$EndComp
$Comp
L C-RESCUE-TDCombat C4
U 1 1 56C3AD6B
P 6900 5150
F 0 "C4" V 6950 5200 50  0000 L CNN
F 1 "12n" H 6925 5050 50  0000 L CNN
F 2 "Capacitors_SMD:C_0603_HandSoldering" H 6938 5000 30  0001 C CNN
F 3 "" H 6900 5150 60  0000 C CNN
	1    6900 5150
	1    0    0    -1  
$EndComp
Wire Wire Line
	2700 4850 7250 4850
Wire Wire Line
	7150 4850 7150 5000
Wire Wire Line
	6900 4850 6900 5000
Connection ~ 7150 4850
Wire Wire Line
	6900 5300 6900 5400
Wire Wire Line
	7150 5300 7150 5450
Connection ~ 7150 5400
Connection ~ 6900 4850
$Comp
L R-RESCUE-TDCombat R10
U 1 1 56C3BDF8
P 4250 6850
F 0 "R10" V 4150 6850 50  0000 C CNN
F 1 "10k" V 4250 6850 50  0000 C CNN
F 2 "Resistors_SMD:R_0603_HandSoldering" V 4180 6850 30  0001 C CNN
F 3 "" H 4250 6850 30  0000 C CNN
	1    4250 6850
	1    0    0    -1  
$EndComp
$Comp
L C-RESCUE-TDCombat C5
U 1 1 56C3BE3A
P 4450 6850
F 0 "C5" H 4475 6950 50  0000 L CNN
F 1 "2µ2" H 4475 6750 50  0000 L CNN
F 2 "Capacitors_SMD:C_0603_HandSoldering" H 4488 6700 30  0001 C CNN
F 3 "" H 4450 6850 60  0000 C CNN
	1    4450 6850
	1    0    0    -1  
$EndComp
$Comp
L GNDA-RESCUE-TDCombat #PWR02
U 1 1 56C3BE41
P 4250 7100
F 0 "#PWR02" H 4250 6850 50  0001 C CNN
F 1 "GNDA" H 4250 6950 50  0000 C CNN
F 2 "" H 4250 7100 60  0000 C CNN
F 3 "" H 4250 7100 60  0000 C CNN
	1    4250 7100
	1    0    0    -1  
$EndComp
Wire Wire Line
	4250 7000 4250 7100
Wire Wire Line
	4250 7050 4450 7050
Wire Wire Line
	4450 7050 4450 7000
Connection ~ 4250 7050
Wire Wire Line
	4250 6400 4250 6700
Wire Wire Line
	4450 6550 4450 6700
Connection ~ 4250 6550
$Comp
L +3.3VADC #PWR03
U 1 1 56C3C635
P 4250 6000
F 0 "#PWR03" H 4400 5950 50  0001 C CNN
F 1 "+3.3VADC" H 4250 6100 50  0000 C CNN
F 2 "" H 4250 6000 50  0000 C CNN
F 3 "" H 4250 6000 50  0000 C CNN
	1    4250 6000
	1    0    0    -1  
$EndComp
$Comp
L R-RESCUE-TDCombat R9
U 1 1 56C3D373
P 4250 6250
F 0 "R9" V 4150 6300 50  0000 C CNN
F 1 "NTC 10k" V 4250 6250 31  0000 C CNN
F 2 "Resistors_SMD:R_0603_HandSoldering" V 4180 6250 30  0001 C CNN
F 3 "" H 4250 6250 30  0000 C CNN
	1    4250 6250
	-1   0    0    1   
$EndComp
Wire Wire Line
	3650 6550 4450 6550
Wire Wire Line
	4250 6000 4250 6100
Wire Wire Line
	2700 5600 3650 5600
Wire Wire Line
	3650 5600 3650 6550
Text Notes 4450 6300 0    60   ~ 0
Zwischen den FETs plazieren\n
$Comp
L CONN_01X01 P1
U 1 1 56C4B61F
P 5750 1150
F 0 "P1" H 5750 1250 50  0000 C CNN
F 1 "A" V 5850 1150 50  0000 C CNN
F 2 "thunderdrive-combat:3_5mm_Bullet" H 5750 1150 50  0001 C CNN
F 3 "" H 5750 1150 50  0000 C CNN
	1    5750 1150
	1    0    0    -1  
$EndComp
Wire Wire Line
	4900 1150 5550 1150
Wire Wire Line
	4900 1550 5550 1550
Wire Wire Line
	4900 1900 5550 1900
$Comp
L CONN_01X01 P2
U 1 1 56C4FA7F
P 5750 1550
F 0 "P2" H 5750 1650 50  0000 C CNN
F 1 "B" V 5850 1550 50  0000 C CNN
F 2 "thunderdrive-combat:3_5mm_Bullet" H 5750 1550 50  0001 C CNN
F 3 "" H 5750 1550 50  0000 C CNN
	1    5750 1550
	1    0    0    -1  
$EndComp
$Comp
L CONN_01X01 P3
U 1 1 56C4FBD2
P 5750 1900
F 0 "P3" H 5750 2000 50  0000 C CNN
F 1 "C" V 5850 1900 50  0000 C CNN
F 2 "thunderdrive-combat:3_5mm_Bullet" H 5750 1900 50  0001 C CNN
F 3 "" H 5750 1900 50  0000 C CNN
	1    5750 1900
	1    0    0    -1  
$EndComp
Wire Wire Line
	9250 4850 9250 5450
Connection ~ 9250 5450
Wire Wire Line
	6900 5400 7150 5400
Wire Wire Line
	9100 5450 9500 5450
Wire Wire Line
	9100 6000 9500 6000
$EndSCHEMATC
