EESchema Schematic File Version 2
LIBS:TDCombat-rescue
LIBS:power
LIBS:device
LIBS:transistors
LIBS:conn
LIBS:linear
LIBS:regul
LIBS:74xx
LIBS:cmos4000
LIBS:adc-dac
LIBS:memory
LIBS:xilinx
LIBS:microcontrollers
LIBS:dsp
LIBS:microchip
LIBS:analog_switches
LIBS:motorola
LIBS:texas
LIBS:intel
LIBS:audio
LIBS:interface
LIBS:digital-audio
LIBS:philips
LIBS:display
LIBS:cypress
LIBS:siliconi
LIBS:opto
LIBS:atmel
LIBS:contrib
LIBS:valves
LIBS:stm32
LIBS:ThunderDrive
LIBS:crf_1
LIBS:con-amp-micromatch
LIBS:TDCombat-cache
EELAYER 25 0
EELAYER END
$Descr A4 11693 8268
encoding utf-8
Sheet 5 5
Title "Thunder Drive Combat Power"
Date "2015-12-16"
Rev "2"
Comp "Thunder Tecnologies GmbH"
Comment1 ""
Comment2 ""
Comment3 ""
Comment4 ""
$EndDescr
$Comp
L TPHR8504PL Q302
U 1 1 562952A1
P 5450 1700
F 0 "Q302" H 5550 1700 50  0000 L CNN
F 1 "TPHR8504PL" H 5550 1800 50  0000 L CNN
F 2 "thunderdrive-combat:SOP_ADVANCE" H 4800 1800 50  0001 L CNN
F 3 "" H 5350 1700 50  0000 L CNN
	1    5450 1700
	1    0    0    -1  
$EndComp
$Comp
L TPHR8504PL Q301
U 1 1 562952ED
P 5450 1050
F 0 "Q301" H 5550 1050 50  0000 L CNN
F 1 "TPHR8504PL" V 5300 1100 50  0000 L CNN
F 2 "thunderdrive-combat:SOP_ADVANCE" H 4850 1250 50  0001 L CNN
F 3 "" H 5350 1050 50  0000 L CNN
	1    5450 1050
	1    0    0    -1  
$EndComp
$Comp
L R-RESCUE-TDCombat R306
U 1 1 56296629
P 4600 1900
F 0 "R306" V 4680 1900 50  0000 C CNN
F 1 "10R" V 4600 1900 50  0000 C CNN
F 2 "Resistors_SMD:R_0805" V 4530 1900 30  0001 C CNN
F 3 "" H 4600 1900 30  0000 C CNN
	1    4600 1900
	0    1    1    0   
$EndComp
$Comp
L R-RESCUE-TDCombat R304
U 1 1 56296887
P 4600 1250
F 0 "R304" V 4680 1250 50  0000 C CNN
F 1 "10R" V 4600 1250 50  0000 C CNN
F 2 "Resistors_SMD:R_0805" V 4530 1250 30  0001 C CNN
F 3 "" H 4600 1250 30  0000 C CNN
	1    4600 1250
	0    -1   -1   0   
$EndComp
$Comp
L IRS21867S U303
U 1 1 56297BCD
P 2000 4750
F 0 "U303" H 2000 5000 50  0000 C CNN
F 1 "IRS21867S" H 2000 4400 50  0000 C CNN
F 2 "Housings_SOIC:SOIC-8_3.9x4.9mm_Pitch1.27mm" H 2000 5000 60  0001 C CNN
F 3 "" H 2000 5000 60  0000 C CNN
	1    2000 4750
	1    0    0    -1  
$EndComp
$Comp
L C-RESCUE-TDCombat C306
U 1 1 5629BC6E
P 1250 4450
F 0 "C306" H 1275 4550 50  0000 L CNN
F 1 "100n 50V" V 1100 4250 50  0000 L CNN
F 2 "Capacitors_SMD:C_0805" H 1288 4300 30  0001 C CNN
F 3 "" H 1250 4450 60  0000 C CNN
	1    1250 4450
	1    0    0    -1  
$EndComp
$Comp
L D_Schottky D303
U 1 1 5629BEBC
P 2000 4150
F 0 "D303" H 2000 4250 50  0000 C CNN
F 1 "PMLL4153" H 2000 4050 50  0000 C CNN
F 2 "Diodes_SMD:MiniMELF_Standard" H 2000 4150 60  0001 C CNN
F 3 "" H 2000 4150 60  0000 C CNN
	1    2000 4150
	-1   0    0    1   
$EndComp
$Comp
L C-RESCUE-TDCombat C313
U 1 1 5629C364
P 2650 4450
F 0 "C313" V 2700 4500 50  0000 L CNN
F 1 "100n 50V" V 2500 4250 50  0000 L CNN
F 2 "Capacitors_SMD:C_0805" H 2688 4300 30  0001 C CNN
F 3 "" H 2650 4450 60  0000 C CNN
	1    2650 4450
	1    0    0    -1  
$EndComp
Text HLabel 1050 4750 0    60   Input ~ 0
PWM_A
Text HLabel 1050 4950 0    60   Input ~ 0
PWM_AN
$Comp
L +24V #PWR022
U 1 1 562A86A1
P 5450 750
F 0 "#PWR022" H 5450 600 50  0001 C CNN
F 1 "+24V" H 5450 890 50  0000 C CNN
F 2 "" H 5450 750 60  0000 C CNN
F 3 "" H 5450 750 60  0000 C CNN
	1    5450 750 
	1    0    0    -1  
$EndComp
$Comp
L TPHR8504PL Q307
U 1 1 5643B7C8
P 6150 1050
F 0 "Q307" H 6250 1050 50  0000 L CNN
F 1 "TPHR8504PL" H 6250 1150 50  0000 L CNN
F 2 "thunderdrive-combat:SOP_ADVANCE" H 5550 1250 50  0001 L CNN
F 3 "" H 6050 1050 50  0000 L CNN
	1    6150 1050
	1    0    0    -1  
$EndComp
$Comp
L TPHR8504PL Q308
U 1 1 5644395E
P 6150 1700
F 0 "Q308" V 6300 1600 50  0000 L CNN
F 1 "TPHR8504PL" V 6400 1450 50  0000 L CNN
F 2 "thunderdrive-combat:SOP_ADVANCE" H 5550 1900 50  0001 L CNN
F 3 "" H 6050 1700 50  0000 L CNN
	1    6150 1700
	1    0    0    -1  
$EndComp
$Comp
L TPHR8504PL Q304
U 1 1 56446DE9
P 5450 4250
F 0 "Q304" H 5550 4250 50  0000 L CNN
F 1 "TPHR8504PL" H 4850 4350 50  0000 L CNN
F 2 "thunderdrive-combat:SOP_ADVANCE" H 4800 4350 50  0001 L CNN
F 3 "" H 5350 4250 50  0000 L CNN
	1    5450 4250
	1    0    0    -1  
$EndComp
$Comp
L TPHR8504PL Q303
U 1 1 56446DEF
P 5450 3600
F 0 "Q303" H 5550 3600 50  0000 L CNN
F 1 "TPHR8504PL" V 5250 3650 50  0000 L CNN
F 2 "thunderdrive-combat:SOP_ADVANCE" H 4850 3800 50  0001 L CNN
F 3 "" H 5350 3600 50  0000 L CNN
	1    5450 3600
	1    0    0    -1  
$EndComp
$Comp
L R-RESCUE-TDCombat R308
U 1 1 56446DFB
P 4600 4450
F 0 "R308" V 4680 4450 50  0000 C CNN
F 1 "10R" V 4600 4450 50  0000 C CNN
F 2 "Resistors_SMD:R_0805" V 4530 4450 30  0001 C CNN
F 3 "" H 4600 4450 30  0000 C CNN
	1    4600 4450
	0    1    1    0   
$EndComp
$Comp
L R-RESCUE-TDCombat R302
U 1 1 56446E01
P 4600 3800
F 0 "R302" V 4680 3800 50  0000 C CNN
F 1 "10R" V 4600 3800 50  0000 C CNN
F 2 "Resistors_SMD:R_0805" V 4530 3800 30  0001 C CNN
F 3 "" H 4600 3800 30  0000 C CNN
	1    4600 3800
	0    -1   -1   0   
$EndComp
$Comp
L IRS21867S U302
U 1 1 56446E07
P 1950 3150
F 0 "U302" H 1950 3400 50  0000 C CNN
F 1 "IRS21867S" H 1950 2800 50  0000 C CNN
F 2 "Housings_SOIC:SOIC-8_3.9x4.9mm_Pitch1.27mm" H 1950 3400 60  0001 C CNN
F 3 "" H 1950 3400 60  0000 C CNN
	1    1950 3150
	1    0    0    -1  
$EndComp
$Comp
L C-RESCUE-TDCombat C305
U 1 1 56446E1E
P 1200 2850
F 0 "C305" H 1225 2950 50  0000 L CNN
F 1 "100n 50V" V 1050 2650 50  0000 L CNN
F 2 "Capacitors_SMD:C_0805" H 1238 2700 30  0001 C CNN
F 3 "" H 1200 2850 60  0000 C CNN
	1    1200 2850
	1    0    0    -1  
$EndComp
$Comp
L D_Schottky D302
U 1 1 56446E26
P 1950 2550
F 0 "D302" H 1950 2650 50  0000 C CNN
F 1 "PMLL4153" H 1950 2450 50  0000 C CNN
F 2 "Diodes_SMD:MiniMELF_Standard" H 1950 2550 60  0001 C CNN
F 3 "" H 1950 2550 60  0000 C CNN
	1    1950 2550
	-1   0    0    1   
$EndComp
$Comp
L C-RESCUE-TDCombat C312
U 1 1 56446E33
P 2600 2850
F 0 "C312" V 2650 2900 50  0000 L CNN
F 1 "100n 50V" V 2450 2650 50  0000 L CNN
F 2 "Capacitors_SMD:C_0805" H 2638 2700 30  0001 C CNN
F 3 "" H 2600 2850 60  0000 C CNN
	1    2600 2850
	1    0    0    -1  
$EndComp
Text HLabel 1000 3150 0    60   Input ~ 0
PWM_B
Text HLabel 1000 3350 0    60   Input ~ 0
PWM_BN
$Comp
L +24V #PWR024
U 1 1 56446E54
P 5450 3200
F 0 "#PWR024" H 5450 3050 50  0001 C CNN
F 1 "+24V" H 5450 3340 50  0000 C CNN
F 2 "" H 5450 3200 60  0000 C CNN
F 3 "" H 5450 3200 60  0000 C CNN
	1    5450 3200
	1    0    0    -1  
$EndComp
$Comp
L TPHR8504PL Q309
U 1 1 56446E67
P 6150 3600
F 0 "Q309" H 6250 3600 50  0000 L CNN
F 1 "TPHR8504PL" V 6300 3700 50  0000 L CNN
F 2 "thunderdrive-combat:SOP_ADVANCE" H 5550 3800 50  0001 L CNN
F 3 "" H 6050 3600 50  0000 L CNN
	1    6150 3600
	1    0    0    -1  
$EndComp
$Comp
L TPHR8504PL Q310
U 1 1 56446E78
P 6150 4250
F 0 "Q310" V 6300 4150 50  0000 L CNN
F 1 "TPHR8504PL" V 6400 4000 50  0000 L CNN
F 2 "thunderdrive-combat:SOP_ADVANCE" H 5550 4450 50  0001 L CNN
F 3 "" H 6050 4250 50  0000 L CNN
	1    6150 4250
	1    0    0    -1  
$EndComp
$Comp
L TPHR8504PL Q306
U 1 1 564477AD
P 5400 6650
F 0 "Q306" H 5500 6650 50  0000 L CNN
F 1 "TPHR8504PL" H 5500 6750 50  0000 L CNN
F 2 "thunderdrive-combat:SOP_ADVANCE" H 4750 6750 50  0001 L CNN
F 3 "" H 5300 6650 50  0000 L CNN
	1    5400 6650
	1    0    0    -1  
$EndComp
$Comp
L TPHR8504PL Q305
U 1 1 564477B3
P 5400 6000
F 0 "Q305" H 5500 6000 50  0000 L CNN
F 1 "TPHR8504PL" V 5200 6050 50  0000 L CNN
F 2 "thunderdrive-combat:SOP_ADVANCE" H 4800 6200 50  0001 L CNN
F 3 "" H 5300 6000 50  0000 L CNN
	1    5400 6000
	1    0    0    -1  
$EndComp
$Comp
L R-RESCUE-TDCombat R313
U 1 1 564477BF
P 4550 6850
F 0 "R313" V 4630 6850 50  0000 C CNN
F 1 "10R" V 4550 6850 50  0000 C CNN
F 2 "Resistors_SMD:R_0805" V 4480 6850 30  0001 C CNN
F 3 "" H 4550 6850 30  0000 C CNN
	1    4550 6850
	0    1    1    0   
$EndComp
$Comp
L R-RESCUE-TDCombat R311
U 1 1 564477C5
P 4550 6200
F 0 "R311" V 4630 6200 50  0000 C CNN
F 1 "10R" V 4550 6200 50  0000 C CNN
F 2 "Resistors_SMD:R_0805" V 4480 6200 30  0001 C CNN
F 3 "" H 4550 6200 30  0000 C CNN
	1    4550 6200
	0    -1   -1   0   
$EndComp
$Comp
L IRS21867S U301
U 1 1 564477CB
P 1900 1400
F 0 "U301" H 1900 1650 50  0000 C CNN
F 1 "IRS21867S" H 1900 1050 50  0000 C CNN
F 2 "Housings_SOIC:SOIC-8_3.9x4.9mm_Pitch1.27mm" H 1900 1650 60  0001 C CNN
F 3 "" H 1900 1650 60  0000 C CNN
	1    1900 1400
	1    0    0    -1  
$EndComp
$Comp
L C-RESCUE-TDCombat C304
U 1 1 564477E2
P 1150 1100
F 0 "C304" H 1175 1200 50  0000 L CNN
F 1 "100n 50V" V 1000 900 50  0000 L CNN
F 2 "Capacitors_SMD:C_0805" H 1188 950 30  0001 C CNN
F 3 "" H 1150 1100 60  0000 C CNN
	1    1150 1100
	1    0    0    -1  
$EndComp
$Comp
L D_Schottky D301
U 1 1 564477EA
P 1900 800
F 0 "D301" H 1900 900 50  0000 C CNN
F 1 "PMLL4153" H 1900 700 50  0000 C CNN
F 2 "Diodes_SMD:MiniMELF_Standard" H 1900 800 60  0001 C CNN
F 3 "" H 1900 800 60  0000 C CNN
	1    1900 800 
	-1   0    0    1   
$EndComp
$Comp
L C-RESCUE-TDCombat C311
U 1 1 564477F7
P 2550 1100
F 0 "C311" V 2600 1150 50  0000 L CNN
F 1 "100n 50V" V 2400 900 50  0000 L CNN
F 2 "Capacitors_SMD:C_0805" H 2588 950 30  0001 C CNN
F 3 "" H 2550 1100 60  0000 C CNN
	1    2550 1100
	1    0    0    -1  
$EndComp
Text HLabel 950  1400 0    60   Input ~ 0
PWM_C
Text HLabel 950  1600 0    60   Input ~ 0
PWM_CN
$Comp
L +24V #PWR026
U 1 1 56447818
P 5400 5600
F 0 "#PWR026" H 5400 5450 50  0001 C CNN
F 1 "+24V" H 5400 5740 50  0000 C CNN
F 2 "" H 5400 5600 60  0000 C CNN
F 3 "" H 5400 5600 60  0000 C CNN
	1    5400 5600
	1    0    0    -1  
$EndComp
$Comp
L TPHR8504PL Q311
U 1 1 5644782B
P 6100 6000
F 0 "Q311" H 6200 6000 50  0000 L CNN
F 1 "TPHR8504PL" V 6250 6100 50  0000 L CNN
F 2 "thunderdrive-combat:SOP_ADVANCE" H 5500 6200 50  0001 L CNN
F 3 "" H 6000 6000 50  0000 L CNN
	1    6100 6000
	1    0    0    -1  
$EndComp
$Comp
L TPHR8504PL Q312
U 1 1 5644783C
P 6100 6650
F 0 "Q312" V 6250 6550 50  0000 L CNN
F 1 "TPHR8504PL" V 6350 6400 50  0000 L CNN
F 2 "thunderdrive-combat:SOP_ADVANCE" H 5500 6850 50  0001 L CNN
F 3 "" H 6000 6650 50  0000 L CNN
	1    6100 6650
	1    0    0    -1  
$EndComp
$Comp
L CONN_02X06 P302
U 1 1 56449538
P 7850 1200
F 0 "P302" H 7850 1550 50  0000 C CNN
F 1 "PWR_P" H 7850 850 50  0000 C CNN
F 2 "con-amp-micromatch:con-amp-micromatch-MICROMATCH-12" H 7850 0   60  0001 C CNN
F 3 "" H 7850 0   60  0000 C CNN
	1    7850 1200
	1    0    0    -1  
$EndComp
$Comp
L CONN_02X06 P301
U 1 1 56452F75
P 10050 1300
F 0 "P301" H 10050 1650 50  0000 C CNN
F 1 "LOG_P" H 10050 950 50  0000 C CNN
F 2 "con-amp-micromatch:con-amp-micromatch-MICROMATCH-12" H 10050 100 60  0001 C CNN
F 3 "" H 10050 100 60  0000 C CNN
	1    10050 1300
	1    0    0    -1  
$EndComp
Text HLabel 6300 1350 2    60   Output ~ 0
Out_A
Text HLabel 6350 3950 2    60   Output ~ 0
Out_B
Text HLabel 6300 6350 2    60   Output ~ 0
Out_C
$Comp
L +5V #PWR029
U 1 1 564D42C4
P 1000 5900
F 0 "#PWR029" H 1000 5750 50  0001 C CNN
F 1 "+5V" H 1000 6040 50  0000 C CNN
F 2 "" H 1000 5900 60  0000 C CNN
F 3 "" H 1000 5900 60  0000 C CNN
	1    1000 5900
	1    0    0    -1  
$EndComp
$Comp
L LM2767 U304
U 1 1 564D6201
P 2100 6500
F 0 "U304" H 2100 6850 60  0000 C CNN
F 1 "LM2767" H 2100 6150 60  0000 C CNN
F 2 "Housings_SOT-23_SOT-143_TSOT-6:SOT-23-5" H 2100 6500 60  0001 C CNN
F 3 "" H 2100 6500 60  0000 C CNN
	1    2100 6500
	1    0    0    -1  
$EndComp
$Comp
L C-RESCUE-TDCombat C321
U 1 1 564D86BE
P 1350 6700
F 0 "C321" V 1400 6450 50  0000 L CNN
F 1 "10µ35V" V 1200 6500 50  0000 L CNN
F 2 "Capacitors_SMD:C_0805" H 1388 6550 30  0001 C CNN
F 3 "" H 1350 6700 60  0000 C CNN
	1    1350 6700
	1    0    0    -1  
$EndComp
$Comp
L +12V #PWR031
U 1 1 564D887C
P 2750 5850
F 0 "#PWR031" H 2750 5700 50  0001 C CNN
F 1 "+12V" H 2750 5990 50  0000 C CNN
F 2 "" H 2750 5850 60  0000 C CNN
F 3 "" H 2750 5850 60  0000 C CNN
	1    2750 5850
	1    0    0    -1  
$EndComp
$Comp
L +12V #PWR032
U 1 1 564D8C03
P 1250 4100
F 0 "#PWR032" H 1250 3950 50  0001 C CNN
F 1 "+12V" H 1250 4240 50  0000 C CNN
F 2 "" H 1250 4100 60  0000 C CNN
F 3 "" H 1250 4100 60  0000 C CNN
	1    1250 4100
	1    0    0    -1  
$EndComp
$Comp
L +12V #PWR033
U 1 1 564D95BC
P 1200 2500
F 0 "#PWR033" H 1200 2350 50  0001 C CNN
F 1 "+12V" H 1200 2640 50  0000 C CNN
F 2 "" H 1200 2500 60  0000 C CNN
F 3 "" H 1200 2500 60  0000 C CNN
	1    1200 2500
	1    0    0    -1  
$EndComp
$Comp
L +12V #PWR034
U 1 1 564D9678
P 1150 750
F 0 "#PWR034" H 1150 600 50  0001 C CNN
F 1 "+12V" H 1150 890 50  0000 C CNN
F 2 "" H 1150 750 60  0000 C CNN
F 3 "" H 1150 750 60  0000 C CNN
	1    1150 750 
	1    0    0    -1  
$EndComp
$Comp
L D_Schottky D304
U 1 1 564D9734
P 1500 6000
F 0 "D304" H 1500 6100 50  0000 C CNN
F 1 "PMLL4153" H 1500 5900 50  0000 C CNN
F 2 "Diodes_SMD:MiniMELF_Standard" H 1500 6000 60  0001 C CNN
F 3 "" H 1500 6000 60  0000 C CNN
	1    1500 6000
	-1   0    0    1   
$EndComp
$Comp
L C-RESCUE-TDCombat C326
U 1 1 564DFBD8
P 2750 6500
F 0 "C326" V 2800 6250 50  0000 L CNN
F 1 "10µ35V" V 2600 6350 50  0000 L CNN
F 2 "Capacitors_SMD:C_0805" H 2788 6350 30  0001 C CNN
F 3 "" H 2750 6500 60  0000 C CNN
	1    2750 6500
	1    0    0    -1  
$EndComp
$Comp
L C-RESCUE-TDCombat C319
U 1 1 564E173F
P 1000 6700
F 0 "C319" V 1050 6450 50  0000 L CNN
F 1 "10µ35V" V 850 6500 50  0000 L CNN
F 2 "Capacitors_SMD:C_0805" H 1038 6550 30  0001 C CNN
F 3 "" H 1000 6700 60  0000 C CNN
	1    1000 6700
	1    0    0    -1  
$EndComp
Text Label 4250 1900 2    60   ~ 0
GATE_AN
Text Label 3900 1250 0    60   ~ 0
GATE_A
Text Label 3900 3800 0    60   ~ 0
GATE_B
Text Label 3900 4450 0    60   ~ 0
GATE_BN
Text Label 3800 6200 0    60   ~ 0
GATE_C
Text Label 3800 6850 0    60   ~ 0
GATE_CN
Text Label 3100 4750 2    60   ~ 0
DRV_A
Text Label 3100 4950 2    60   ~ 0
DRV_AN
Text Label 3050 3150 2    60   ~ 0
DRV_B
Text Label 3050 3350 2    60   ~ 0
DRV_BN
Text Label 2950 1600 2    60   ~ 0
DRV_CN
Text Label 2950 1400 2    60   ~ 0
DRV_C
$Comp
L R-RESCUE-TDCombat R314
U 1 1 564D49B6
P 5800 1250
F 0 "R314" V 5880 1250 50  0000 C CNN
F 1 "10k" V 5800 1250 50  0000 C CNN
F 2 "Resistors_SMD:R_0805" V 5730 1250 30  0001 C CNN
F 3 "" H 5800 1250 30  0000 C CNN
	1    5800 1250
	0    -1   -1   0   
$EndComp
$Comp
L R-RESCUE-TDCombat R315
U 1 1 564D505C
P 5800 1900
F 0 "R315" V 5880 1900 50  0000 C CNN
F 1 "10k" V 5800 1900 50  0000 C CNN
F 2 "Resistors_SMD:R_0805" V 5730 1900 30  0001 C CNN
F 3 "" H 5800 1900 30  0000 C CNN
	1    5800 1900
	0    -1   -1   0   
$EndComp
$Comp
L R-RESCUE-TDCombat R316
U 1 1 564D571C
P 5800 3800
F 0 "R316" V 5880 3800 50  0000 C CNN
F 1 "10k" V 5800 3800 50  0000 C CNN
F 2 "Resistors_SMD:R_0805" V 5730 3800 30  0001 C CNN
F 3 "" H 5800 3800 30  0000 C CNN
	1    5800 3800
	0    -1   -1   0   
$EndComp
$Comp
L R-RESCUE-TDCombat R317
U 1 1 564D6754
P 5800 4450
F 0 "R317" V 5880 4450 50  0000 C CNN
F 1 "10k" V 5800 4450 50  0000 C CNN
F 2 "Resistors_SMD:R_0805" V 5730 4450 30  0001 C CNN
F 3 "" H 5800 4450 30  0000 C CNN
	1    5800 4450
	0    -1   -1   0   
$EndComp
$Comp
L R-RESCUE-TDCombat R319
U 1 1 564D7B60
P 5800 6850
F 0 "R319" V 5880 6850 50  0000 C CNN
F 1 "10k" V 5800 6850 50  0000 C CNN
F 2 "Resistors_SMD:R_0805" V 5730 6850 30  0001 C CNN
F 3 "" H 5800 6850 30  0000 C CNN
	1    5800 6850
	0    -1   -1   0   
$EndComp
$Comp
L R-RESCUE-TDCombat R318
U 1 1 564D7D6F
P 5750 6200
F 0 "R318" V 5830 6200 50  0000 C CNN
F 1 "10k" V 5750 6200 50  0000 C CNN
F 2 "Resistors_SMD:R_0805" V 5680 6200 30  0001 C CNN
F 3 "" H 5750 6200 30  0000 C CNN
	1    5750 6200
	0    -1   -1   0   
$EndComp
Wire Wire Line
	5450 750  5450 850 
Wire Wire Line
	5450 1250 5450 1500
Connection ~ 5450 1350
Wire Wire Line
	1250 5050 1500 5050
Wire Wire Line
	1600 4950 1500 4950
Wire Wire Line
	1500 4950 1500 5150
Wire Wire Line
	1250 4100 1250 4300
Wire Wire Line
	1250 4600 1250 5050
Connection ~ 1500 5050
Wire Wire Line
	1250 4150 1850 4150
Connection ~ 1250 4150
Wire Wire Line
	2150 4150 2650 4150
Wire Wire Line
	2450 4150 2450 4650
Wire Wire Line
	2450 4650 2400 4650
Wire Wire Line
	2650 4150 2650 4300
Connection ~ 2450 4150
Wire Wire Line
	2650 4850 2650 4600
Connection ~ 2650 4850
Wire Wire Line
	4750 1900 5650 1900
Wire Wire Line
	1050 4750 1600 4750
Wire Wire Line
	1400 4850 1600 4850
Wire Wire Line
	1050 4950 1400 4950
Wire Wire Line
	5450 800  6150 800 
Wire Wire Line
	1400 4950 1400 4850
Connection ~ 5450 800 
Wire Wire Line
	5450 1900 5450 2000
Wire Wire Line
	6150 800  6150 850 
Wire Wire Line
	6150 1250 6150 1500
Connection ~ 6150 1350
Wire Wire Line
	5850 1100 5600 1100
Wire Wire Line
	5600 1250 5600 1100
Wire Wire Line
	4750 1250 5650 1250
Connection ~ 4950 1250
Wire Wire Line
	6150 2000 6150 1900
Wire Wire Line
	5850 1750 5600 1750
Wire Wire Line
	5600 1750 5600 1900
Connection ~ 5000 1900
Wire Wire Line
	4950 1100 5150 1100
Wire Wire Line
	1600 4650 1500 4650
Wire Wire Line
	1500 4650 1500 4150
Connection ~ 1500 4150
Wire Wire Line
	5450 3200 5450 3400
Wire Wire Line
	5450 3800 5450 4050
Connection ~ 5450 3950
Wire Wire Line
	1200 3450 1450 3450
Wire Wire Line
	1550 3350 1450 3350
Wire Wire Line
	1450 3350 1450 3550
Wire Wire Line
	1200 2500 1200 2700
Wire Wire Line
	1200 3000 1200 3450
Connection ~ 1450 3450
Wire Wire Line
	1200 2550 1800 2550
Connection ~ 1200 2550
Wire Wire Line
	2100 2550 2600 2550
Wire Wire Line
	2400 2550 2400 3050
Wire Wire Line
	2400 3050 2350 3050
Wire Wire Line
	2600 2550 2600 2700
Connection ~ 2400 2550
Wire Wire Line
	2600 3250 2600 3000
Connection ~ 2600 3250
Wire Wire Line
	4750 4450 5650 4450
Wire Wire Line
	5000 4450 5000 4300
Wire Wire Line
	1000 3150 1550 3150
Wire Wire Line
	1350 3250 1550 3250
Wire Wire Line
	1000 3350 1350 3350
Wire Wire Line
	5450 3300 6150 3300
Wire Wire Line
	1350 3350 1350 3250
Connection ~ 5450 3300
Wire Wire Line
	5450 4450 5450 4550
Wire Wire Line
	6150 3300 6150 3400
Wire Wire Line
	6150 3800 6150 4050
Connection ~ 6150 3950
Wire Wire Line
	5850 3650 5600 3650
Wire Wire Line
	5600 3800 5600 3650
Wire Wire Line
	4750 3800 5650 3800
Wire Wire Line
	5000 3650 5000 3800
Connection ~ 5000 3800
Wire Wire Line
	6150 4550 6150 4450
Wire Wire Line
	5850 4300 5600 4300
Wire Wire Line
	5600 4300 5600 4450
Connection ~ 5000 4450
Wire Wire Line
	5000 3650 5150 3650
Wire Wire Line
	1550 3050 1450 3050
Wire Wire Line
	1450 3050 1450 2550
Connection ~ 1450 2550
Wire Wire Line
	5400 5600 5400 5800
Wire Wire Line
	5400 6200 5400 6450
Connection ~ 5400 6350
Wire Wire Line
	1150 1700 1400 1700
Wire Wire Line
	1500 1600 1400 1600
Wire Wire Line
	1400 1600 1400 1800
Wire Wire Line
	1150 750  1150 950 
Wire Wire Line
	1150 1250 1150 1700
Connection ~ 1400 1700
Wire Wire Line
	1150 800  1750 800 
Connection ~ 1150 800 
Wire Wire Line
	2050 800  2550 800 
Wire Wire Line
	2350 800  2350 1300
Wire Wire Line
	2350 1300 2300 1300
Wire Wire Line
	2550 800  2550 950 
Connection ~ 2350 800 
Wire Wire Line
	2550 1500 2550 1250
Connection ~ 2550 1500
Wire Wire Line
	4700 6850 5650 6850
Wire Wire Line
	4950 6700 4950 6850
Wire Wire Line
	2300 1500 2950 1500
Wire Wire Line
	950  1400 1500 1400
Wire Wire Line
	1300 1500 1500 1500
Wire Wire Line
	950  1600 1300 1600
Wire Wire Line
	5400 5700 6100 5700
Wire Wire Line
	1300 1600 1300 1500
Connection ~ 5400 5700
Wire Wire Line
	5400 6850 5400 6950
Wire Wire Line
	5400 6950 6100 6950
Wire Wire Line
	6100 5700 6100 5800
Wire Wire Line
	6100 6200 6100 6450
Connection ~ 6100 6350
Wire Wire Line
	5800 6050 5550 6050
Wire Wire Line
	5550 6200 5550 6050
Wire Wire Line
	4700 6200 5600 6200
Wire Wire Line
	4950 6050 4950 6200
Connection ~ 4950 6200
Wire Wire Line
	6100 6950 6100 6850
Wire Wire Line
	5800 6700 5550 6700
Wire Wire Line
	5550 6700 5550 6850
Connection ~ 4950 6850
Wire Wire Line
	4950 6050 5100 6050
Wire Wire Line
	1500 1300 1400 1300
Wire Wire Line
	1400 1300 1400 800 
Connection ~ 1400 800 
Wire Wire Line
	3900 1250 4450 1250
Wire Wire Line
	3900 1900 4450 1900
Wire Wire Line
	3900 4450 4450 4450
Wire Wire Line
	5450 3950 6350 3950
Wire Wire Line
	3900 3800 4450 3800
Wire Wire Line
	3800 6200 4400 6200
Wire Wire Line
	5400 6350 6300 6350
Wire Wire Line
	3800 6850 4400 6850
Wire Wire Line
	2400 4750 3100 4750
Wire Wire Line
	2400 4950 3100 4950
Wire Wire Line
	2350 3150 3050 3150
Wire Wire Line
	2350 3350 3050 3350
Wire Wire Line
	2300 1400 2950 1400
Wire Wire Line
	2300 1600 2950 1600
Wire Wire Line
	5450 1350 6300 1350
Wire Wire Line
	1000 5900 1000 6550
Wire Wire Line
	1000 6300 1600 6300
Connection ~ 1000 6300
Wire Wire Line
	1000 6850 1000 7200
Wire Wire Line
	2750 7200 1000 7200
Wire Wire Line
	2750 6650 2750 7300
Wire Wire Line
	2750 6700 2600 6700
Connection ~ 2750 7200
Wire Wire Line
	1600 6500 1350 6500
Wire Wire Line
	1350 6500 1350 6550
Wire Wire Line
	1600 6700 1600 7100
Wire Wire Line
	1600 7100 1350 7100
Wire Wire Line
	1350 7100 1350 6850
Wire Wire Line
	1350 6000 1000 6000
Connection ~ 1000 6000
Wire Wire Line
	1650 6000 2750 6000
Wire Wire Line
	2750 5850 2750 6350
Wire Wire Line
	2750 6300 2600 6300
Connection ~ 2750 6700
Connection ~ 2750 6300
Connection ~ 2750 6000
Connection ~ 5600 1250
Wire Wire Line
	5950 1250 6000 1250
Wire Wire Line
	6000 1250 6000 1350
Connection ~ 6000 1350
Connection ~ 5600 1900
Wire Wire Line
	5950 1900 6000 1900
Wire Wire Line
	6000 1900 6000 2050
Connection ~ 6000 2000
Connection ~ 5600 3800
Wire Wire Line
	5950 3800 6000 3800
Wire Wire Line
	6000 3800 6000 3950
Connection ~ 6000 3950
Connection ~ 5600 4450
Wire Wire Line
	5950 4450 6000 4450
Wire Wire Line
	6000 4450 6000 4600
Connection ~ 6000 4550
Connection ~ 5550 6200
Wire Wire Line
	5900 6200 5950 6200
Wire Wire Line
	5950 6200 5950 6350
Connection ~ 5950 6350
Connection ~ 5550 6850
Wire Wire Line
	5950 6850 6000 6850
Wire Wire Line
	6000 6850 6000 7000
Connection ~ 6000 6950
Wire Wire Line
	5000 1750 5000 1900
Wire Wire Line
	5150 1750 5000 1750
Wire Wire Line
	2400 4850 3100 4850
$Comp
L +24V #PWR035
U 1 1 5662A804
P 10450 950
F 0 "#PWR035" H 10450 800 50  0001 C CNN
F 1 "+24V" H 10450 1090 50  0000 C CNN
F 2 "" H 10450 950 60  0000 C CNN
F 3 "" H 10450 950 60  0000 C CNN
	1    10450 950 
	-1   0    0    -1  
$EndComp
Wire Wire Line
	10300 1050 10450 1050
Wire Wire Line
	10450 1050 10450 950 
Wire Wire Line
	9450 1050 9800 1050
Wire Wire Line
	9800 1150 9450 1150
Wire Wire Line
	9800 1250 9450 1250
Wire Wire Line
	9800 1350 9450 1350
Wire Wire Line
	9400 1450 9800 1450
Wire Wire Line
	9800 1550 9450 1550
Wire Wire Line
	10300 1150 10700 1150
Wire Wire Line
	10300 1350 10850 1350
Wire Wire Line
	10300 1450 10700 1450
Wire Wire Line
	10300 1550 10700 1550
Text Label 9450 1150 0    60   ~ 0
DRV_C
Text Label 10700 1150 2    60   ~ 0
DRV_CN
Text Label 10700 1450 2    60   ~ 0
DRV_A
Text Label 9450 1550 0    60   ~ 0
DRV_AN
Wire Wire Line
	9400 1450 9400 1650
Wire Wire Line
	10300 1250 10700 1250
Text Label 9450 1250 0    60   ~ 0
DRV_B
Text Label 10700 1250 2    60   ~ 0
DRV_BN
Wire Wire Line
	8250 950  8250 850 
Wire Wire Line
	8100 1250 8900 1250
Wire Wire Line
	7150 1350 7150 1600
Wire Wire Line
	8100 1050 8550 1050
Wire Wire Line
	8100 1150 8550 1150
Wire Wire Line
	7600 950  7150 950 
Wire Wire Line
	7600 1050 7200 1050
Wire Wire Line
	7600 1150 7200 1150
Wire Wire Line
	7600 1250 7150 1250
Wire Wire Line
	7600 1450 7200 1450
Wire Wire Line
	8100 1450 8550 1450
Wire Wire Line
	8100 1350 8550 1350
Text HLabel 7150 950  0    60   Input ~ 0
Out_C
Text Label 7200 1050 0    60   ~ 0
GATE_C
Text Label 8550 1050 2    60   ~ 0
GATE_CN
Text Label 7200 1150 0    60   ~ 0
GATE_B
Text HLabel 7150 1250 0    60   Input ~ 0
Out_B
Text Label 7200 1450 0    60   ~ 0
GATE_AN
Text HLabel 8550 1450 2    60   Input ~ 0
Out_A
Text Label 8550 1350 2    60   ~ 0
GATE_A
Text Label 8550 1150 2    60   ~ 0
GATE_BN
Wire Wire Line
	7600 1350 7150 1350
Wire Wire Line
	8100 950  8250 950 
$Comp
L GNDPWR #PWR039
U 1 1 5661E28E
P 6000 5150
F 0 "#PWR039" H 6000 4950 50  0001 C CNN
F 1 "GNDPWR" H 6000 5020 50  0000 C CNN
F 2 "" H 6000 5100 60  0000 C CNN
F 3 "" H 6000 5100 60  0000 C CNN
	1    6000 5150
	-1   0    0    -1  
$EndComp
$Comp
L GNDPWR #PWR040
U 1 1 5661E8DF
P 6000 7550
F 0 "#PWR040" H 6000 7350 50  0001 C CNN
F 1 "GNDPWR" H 6000 7420 50  0000 C CNN
F 2 "" H 6000 7500 60  0000 C CNN
F 3 "" H 6000 7500 60  0000 C CNN
	1    6000 7550
	-1   0    0    -1  
$EndComp
Wire Wire Line
	5450 2000 6150 2000
Wire Wire Line
	5450 4550 6150 4550
Text Label 3100 4850 2    60   ~ 0
Phase_A
Wire Wire Line
	2350 3250 3050 3250
Text Label 3050 3250 2    60   ~ 0
Phase_B
Text Label 2950 1500 2    60   ~ 0
Phase_C
Text Label 9450 1050 0    60   ~ 0
Phase_C
Text Label 9450 1350 0    60   ~ 0
Phase_B
Text Label 10700 1550 2    60   ~ 0
Phase_A
Text HLabel 3100 4850 2    60   Output ~ 0
Phase_A
Wire Wire Line
	10850 1350 10850 1650
Wire Wire Line
	8900 1250 8900 1650
Wire Wire Line
	4950 1100 4950 1250
Wire Wire Line
	5000 4300 5150 4300
Wire Wire Line
	4950 6700 5100 6700
$Comp
L SHUNT R?
U 1 1 56C0952E
P 6000 2300
F 0 "R?" V 6080 2300 50  0000 C CNN
F 1 "SHUNT" V 6000 2300 50  0000 C CNN
F 2 "" H 6000 2300 60  0000 C CNN
F 3 "" H 6000 2300 60  0000 C CNN
	1    6000 2300
	-1   0    0    -1  
$EndComp
$Comp
L GNDPWR #PWR?
U 1 1 56C09712
P 6000 2600
F 0 "#PWR?" H 6000 2400 50  0001 C CNN
F 1 "GNDPWR" H 6000 2450 50  0000 C CNN
F 2 "" H 6000 2550 50  0000 C CNN
F 3 "" H 6000 2550 50  0000 C CNN
	1    6000 2600
	1    0    0    -1  
$EndComp
Text HLabel 3050 3250 2    60   Output ~ 0
Phase_B
Text HLabel 2950 1500 2    60   Output ~ 0
Phase_C
$Comp
L GNDD #PWR?
U 1 1 56C0E18B
P 1400 1800
F 0 "#PWR?" H 1400 1550 50  0001 C CNN
F 1 "GNDD" H 1400 1650 50  0000 C CNN
F 2 "" H 1400 1800 50  0000 C CNN
F 3 "" H 1400 1800 50  0000 C CNN
	1    1400 1800
	1    0    0    -1  
$EndComp
$Comp
L GNDD #PWR?
U 1 1 56C0E617
P 1450 3550
F 0 "#PWR?" H 1450 3300 50  0001 C CNN
F 1 "GNDD" H 1450 3400 50  0000 C CNN
F 2 "" H 1450 3550 50  0000 C CNN
F 3 "" H 1450 3550 50  0000 C CNN
	1    1450 3550
	1    0    0    -1  
$EndComp
$Comp
L GNDD #PWR?
U 1 1 56C0E794
P 1500 5150
F 0 "#PWR?" H 1500 4900 50  0001 C CNN
F 1 "GNDD" H 1500 5000 50  0000 C CNN
F 2 "" H 1500 5150 50  0000 C CNN
F 3 "" H 1500 5150 50  0000 C CNN
	1    1500 5150
	1    0    0    -1  
$EndComp
$Comp
L GNDD #PWR?
U 1 1 56C10FC3
P 2750 7300
F 0 "#PWR?" H 2750 7050 50  0001 C CNN
F 1 "GNDD" H 2750 7150 50  0000 C CNN
F 2 "" H 2750 7300 50  0000 C CNN
F 3 "" H 2750 7300 50  0000 C CNN
	1    2750 7300
	1    0    0    -1  
$EndComp
$Comp
L GNDPWR #PWR043
U 1 1 5664ACFF
P 8900 1650
F 0 "#PWR043" H 8900 1450 50  0001 C CNN
F 1 "GNDPWR" H 8900 1520 50  0000 C CNN
F 2 "" H 8900 1600 60  0000 C CNN
F 3 "" H 8900 1600 60  0000 C CNN
	1    8900 1650
	-1   0    0    -1  
$EndComp
$Comp
L GNDPWR #PWR037
U 1 1 56612BFE
P 7150 1600
F 0 "#PWR037" H 7150 1400 50  0001 C CNN
F 1 "GNDPWR" H 7150 1470 50  0000 C CNN
F 2 "" H 7150 1550 60  0000 C CNN
F 3 "" H 7150 1550 60  0000 C CNN
	1    7150 1600
	-1   0    0    -1  
$EndComp
$Comp
L GNDD #PWR?
U 1 1 56C14A4C
P 9400 1650
F 0 "#PWR?" H 9400 1400 50  0001 C CNN
F 1 "GNDD" H 9400 1500 50  0000 C CNN
F 2 "" H 9400 1650 50  0000 C CNN
F 3 "" H 9400 1650 50  0000 C CNN
	1    9400 1650
	1    0    0    -1  
$EndComp
$Comp
L GNDD #PWR?
U 1 1 56C14ADB
P 10850 1650
F 0 "#PWR?" H 10850 1400 50  0001 C CNN
F 1 "GNDD" H 10850 1500 50  0000 C CNN
F 2 "" H 10850 1650 50  0000 C CNN
F 3 "" H 10850 1650 50  0000 C CNN
	1    10850 1650
	1    0    0    -1  
$EndComp
$Comp
L SHUNT R?
U 1 1 56C1A4B5
P 6000 4850
F 0 "R?" V 6080 4850 50  0000 C CNN
F 1 "SHUNT" V 6000 4850 50  0000 C CNN
F 2 "" H 6000 4850 60  0000 C CNN
F 3 "" H 6000 4850 60  0000 C CNN
	1    6000 4850
	-1   0    0    -1  
$EndComp
Wire Wire Line
	6000 5100 6000 5150
$Comp
L SHUNT R?
U 1 1 56C1FDE7
P 6000 7250
F 0 "R?" V 6080 7250 50  0000 C CNN
F 1 "SHUNT" V 6000 7250 50  0000 C CNN
F 2 "" H 6000 7250 60  0000 C CNN
F 3 "" H 6000 7250 60  0000 C CNN
	1    6000 7250
	-1   0    0    -1  
$EndComp
Wire Wire Line
	6000 7500 6000 7550
Wire Wire Line
	6000 2550 6000 2600
$Comp
L CONN_02X06 P?
U 1 1 56C246F2
P 10050 2300
F 0 "P?" H 10050 2650 50  0000 C CNN
F 1 "LOG_M" H 10050 1950 50  0000 C CNN
F 2 "con-amp-micromatch:con-amp-micromatch-MICROMATCH-12" H 10050 1100 60  0001 C CNN
F 3 "" H 10050 1100 60  0000 C CNN
	1    10050 2300
	1    0    0    -1  
$EndComp
$Comp
L CONN_02X06 P?
U 1 1 56C246F9
P 7850 2300
F 0 "P?" H 7850 2650 50  0000 C CNN
F 1 "PWR_M" H 7850 1950 50  0000 C CNN
F 2 "con-amp-micromatch:con-amp-micromatch-MICROMATCH-12" H 7850 1100 60  0001 C CNN
F 3 "" H 7850 1100 60  0000 C CNN
	1    7850 2300
	1    0    0    -1  
$EndComp
$Comp
L R-RESCUE-TDCombat R?
U 1 1 56C2471F
P 8450 2050
F 0 "R?" V 8400 1850 50  0000 C CNN
F 1 "NTC 10k" V 8450 2050 31  0000 C CNN
F 2 "Resistors_SMD:R_0603_HandSoldering" V 8380 2050 30  0001 C CNN
F 3 "" H 8450 2050 30  0000 C CNN
	1    8450 2050
	0    1    1    0   
$EndComp
$Comp
L R-RESCUE-TDCombat R?
U 1 1 56C24726
P 10700 2450
F 0 "R?" V 10600 2450 50  0000 C CNN
F 1 "10k" V 10700 2450 50  0000 C CNN
F 2 "Resistors_SMD:R_0805" V 10630 2450 30  0001 C CNN
F 3 "" H 10700 2450 30  0000 C CNN
	1    10700 2450
	1    0    0    -1  
$EndComp
Text HLabel 10900 2150 2    60   Output ~ 0
Temp
Wire Wire Line
	6150 2200 6650 2200
Wire Wire Line
	6650 2200 6650 2050
Wire Wire Line
	6650 2050 7600 2050
Wire Wire Line
	6150 2400 6750 2400
Wire Wire Line
	6750 2400 6750 2150
Wire Wire Line
	6750 2150 7600 2150
Wire Wire Line
	6150 4750 6850 4750
Wire Wire Line
	6850 4750 6850 2250
Wire Wire Line
	6850 2250 7600 2250
Wire Wire Line
	6150 4950 6950 4950
Wire Wire Line
	6950 4950 6950 2350
Wire Wire Line
	6950 2350 7600 2350
Wire Wire Line
	6150 7150 6700 7150
Wire Wire Line
	6700 7150 6700 5050
Wire Wire Line
	6700 5050 7050 5050
Wire Wire Line
	7050 5050 7050 2450
Wire Wire Line
	7050 2450 7600 2450
Wire Wire Line
	7600 2550 7150 2550
Wire Wire Line
	7150 2550 7150 5150
Wire Wire Line
	7150 5150 6800 5150
Wire Wire Line
	6800 5150 6800 7350
Wire Wire Line
	6800 7350 6150 7350
Wire Wire Line
	8100 2050 8300 2050
Wire Wire Line
	8600 2050 8650 2050
Wire Wire Line
	8650 2050 8650 2150
Wire Wire Line
	8650 2150 8100 2150
Wire Wire Line
	8100 2250 8250 2250
Wire Wire Line
	8250 2250 8250 2700
Wire Wire Line
	8100 2350 8250 2350
Connection ~ 8250 2350
Wire Wire Line
	8100 2450 8250 2450
Connection ~ 8250 2450
Wire Wire Line
	8100 2550 8250 2550
Connection ~ 8250 2550
$Comp
L GNDPWR #PWR?
U 1 1 56C2B110
P 8250 2700
F 0 "#PWR?" H 8250 2500 50  0001 C CNN
F 1 "GNDPWR" H 8250 2570 50  0000 C CNN
F 2 "" H 8250 2650 60  0000 C CNN
F 3 "" H 8250 2650 60  0000 C CNN
	1    8250 2700
	-1   0    0    -1  
$EndComp
$Comp
L +24V #PWR?
U 1 1 56C2B38C
P 8250 850
F 0 "#PWR?" H 8250 700 50  0001 C CNN
F 1 "+24V" H 8250 990 50  0000 C CNN
F 2 "" H 8250 850 60  0000 C CNN
F 3 "" H 8250 850 60  0000 C CNN
	1    8250 850 
	-1   0    0    -1  
$EndComp
Wire Wire Line
	10300 2250 10450 2250
Wire Wire Line
	10450 2250 10450 2700
Wire Wire Line
	10300 2350 10450 2350
Connection ~ 10450 2350
Wire Wire Line
	10300 2450 10450 2450
Connection ~ 10450 2450
Wire Wire Line
	10300 2550 10450 2550
Connection ~ 10450 2550
$Comp
L GNDD #PWR?
U 1 1 56C2CF8A
P 10450 2700
F 0 "#PWR?" H 10450 2450 50  0001 C CNN
F 1 "GNDD" H 10450 2550 50  0000 C CNN
F 2 "" H 10450 2700 50  0000 C CNN
F 3 "" H 10450 2700 50  0000 C CNN
	1    10450 2700
	1    0    0    -1  
$EndComp
Wire Wire Line
	9800 2050 9600 2050
Wire Wire Line
	9800 2150 9600 2150
Wire Wire Line
	9800 2250 9600 2250
Wire Wire Line
	9800 2350 9600 2350
Wire Wire Line
	9800 2450 9600 2450
Wire Wire Line
	9800 2550 9600 2550
Text HLabel 9600 2050 0    60   Output ~ 0
SPA
Text HLabel 9600 2150 0    60   Output ~ 0
SNA
Text HLabel 9600 2250 0    60   Output ~ 0
SPB
Text HLabel 9600 2350 0    60   Output ~ 0
SNB
Text HLabel 9600 2450 0    60   Output ~ 0
SPC
Text HLabel 9600 2550 0    60   Output ~ 0
SNC
Wire Wire Line
	10300 2050 10450 2050
Wire Wire Line
	10450 2050 10450 1950
$Comp
L +3.3VADC #PWR?
U 1 1 56C31236
P 10450 1950
F 0 "#PWR?" H 10600 1900 50  0001 C CNN
F 1 "+3.3VADC" H 10450 2050 50  0000 C CNN
F 2 "" H 10450 1950 50  0000 C CNN
F 3 "" H 10450 1950 50  0000 C CNN
	1    10450 1950
	1    0    0    -1  
$EndComp
$Comp
L C-RESCUE-TDCombat C?
U 1 1 56C32AE2
P 10900 2450
F 0 "C?" H 10925 2550 50  0000 L CNN
F 1 "2µ2" H 10925 2350 50  0000 L CNN
F 2 "Capacitors_SMD:C_0805" H 10938 2300 30  0001 C CNN
F 3 "" H 10900 2450 60  0000 C CNN
	1    10900 2450
	1    0    0    -1  
$EndComp
$Comp
L GNDA #PWR?
U 1 1 56C33166
P 10700 2700
F 0 "#PWR?" H 10700 2450 50  0001 C CNN
F 1 "GNDA" H 10700 2550 50  0000 C CNN
F 2 "" H 10700 2700 60  0000 C CNN
F 3 "" H 10700 2700 60  0000 C CNN
	1    10700 2700
	1    0    0    -1  
$EndComp
Wire Wire Line
	10700 2600 10700 2700
Wire Wire Line
	10700 2650 10900 2650
Wire Wire Line
	10900 2650 10900 2600
Connection ~ 10700 2650
Wire Wire Line
	10300 2150 10900 2150
Wire Wire Line
	10700 2150 10700 2300
Wire Wire Line
	10900 2150 10900 2300
Connection ~ 10700 2150
$EndSCHEMATC
