(module VIA (layer F.Cu) (tedit 56DC1DB3)
  (fp_text reference REF** (at 0 2) (layer F.SilkS) hide
    (effects (font (size 1 1) (thickness 0.15)))
  )
  (fp_text value VIA (at 0 -1.7) (layer F.Fab)
    (effects (font (size 1 1) (thickness 0.15)))
  )
  (pad 1 thru_hole circle (at 0 0) (size 0.7 0.7) (drill 0.5) (layers *.Cu F.SilkS))
)
